<?xml version="1.0" encoding="UTF-8" standalone="no"?>
<!DOCTYPE svg PUBLIC "-//W3C//DTD SVG 1.1//EN" "http://www.w3.org/Graphics/SVG/1.1/DTD/svg11.dtd">
<!-- Généré par Microsoft Visio, SVG Export Schema_administratif.svg Site Administratif -->
<svg xmlns="http://www.w3.org/2000/svg" xmlns:xlink="http://www.w3.org/1999/xlink" xmlns:ev="http://www.w3.org/2001/xml-events"
		xmlns:v="http://schemas.microsoft.com/visio/2003/SVGExtensions/" width="11.6929in" height="8.26772in"
		viewBox="0 0 841.89 595.276" xml:space="preserve" color-interpolation-filters="sRGB" class="st19">
	<v:documentProperties v:langID="1036" v:metric="true" v:viewMarkup="false">
		<v:userDefs>
			<v:ud v:nameU="msvNoAutoConnect" v:prompt="" v:val="VT0(0):26"/>
		</v:userDefs>
	</v:documentProperties>

	<style type="text/css">
	<![CDATA[
		.st1 {fill:#5b9bd5;stroke:#ffffff;stroke-linecap:round;stroke-linejoin:round;stroke-width:0.5}
		.st2 {fill:#1e4a73;font-family:Calibri;font-size:0.833336em}
		.st3 {stroke:#ffffff;stroke-linecap:butt;stroke-width:0.5}
		.st4 {stroke:#5592c9;stroke-linecap:round;stroke-linejoin:round;stroke-width:2.25}
		.st5 {fill:#ffffff;stroke:none;stroke-linecap:butt;stroke-width:7.2}
		.st6 {fill:#41719d;font-family:Calibri;font-size:1.00001em}
		.st7 {stroke:#00b050;stroke-dasharray:2.25,4.5;stroke-linecap:round;stroke-linejoin:round;stroke-width:2.25}
		.st8 {fill:#00b050;font-family:Calibri;font-size:1.00001em}
		.st9 {fill:#aad288;stroke:#ffffff;stroke-linecap:round;stroke-linejoin:round;stroke-width:0.5}
		.st10 {fill:#ffffff}
		.st11 {stroke:#ffc000;stroke-linecap:round;stroke-linejoin:round;stroke-width:1.5}
		.st12 {fill:#ffc000;font-family:Calibri;font-size:1.00001em}
		.st13 {fill:#28669d;stroke:#ffffff;stroke-linecap:round;stroke-linejoin:round;stroke-width:0.5}
		.st14 {fill:#5b9bd5}
		.st15 {stroke:#ffffff;stroke-linecap:round;stroke-linejoin:round;stroke-width:0.5}
		.st16 {fill:#a5a5a5;stroke:#ffffff;stroke-linecap:round;stroke-linejoin:round;stroke-width:0.5}
		.st17 {fill:#73ae42;stroke:#ffffff;stroke-linecap:round;stroke-linejoin:round;stroke-width:0.5}
		.st18 {fill:#ffffff;font-family:Calibri;font-size:1.33333em;font-weight:bold}
		.st19 {fill:none;fill-rule:evenodd;font-size:12px;overflow:visible;stroke-linecap:square;stroke-miterlimit:3}
	]]>
	</style>

	<g v:mID="10" v:index="4" v:groupContext="foregroundPage">
		<v:userDefs>
			<v:ud v:nameU="msvThemeOrder" v:val="VT0(0):26"/>
		</v:userDefs>
		<title>Site Administratif</title>
		<v:pageProperties v:drawingScale="0.0393701" v:pageScale="0.0393701" v:drawingUnits="24" v:shadowOffsetX="8.50394"
				v:shadowOffsetY="-8.50394"/>
		<v:layer v:name="Azure" v:index="0"/>
		<v:layer v:name="Lien" v:index="1"/>
		<g id="group1-1" transform="translate(701.575,-297.638)" v:mID="1" v:groupContext="group">
			<v:custProps>
				<v:cp v:nameU="ShapeClass" v:lbl="ShapeClass" v:prompt="" v:type="0" v:format="" v:sortKey="" v:invis="true"
						v:ask="false" v:langID="1036" v:cal="0" v:val="VT4(Emplacement)"/>
				<v:cp v:nameU="ShapeType" v:lbl="ShapeType" v:prompt="" v:type="0" v:format="" v:sortKey="" v:invis="true"
						v:ask="false" v:langID="1036" v:cal="0" v:val="VT4(Nuage)"/>
			</v:custProps>
			<v:userDefs>
				<v:ud v:nameU="visVersion" v:prompt="" v:val="VT0(15):26"/>
				<v:ud v:nameU="ShapeClass" v:prompt="" v:val="VT0(5):26"/>
				<v:ud v:nameU="SolSH" v:prompt="" v:val="VT15({BF0433D9-CD73-4EB5-8390-8653BE590246}):41"/>
				<v:ud v:nameU="visLegendShape" v:prompt="" v:val="VT0(2):26"/>
			</v:userDefs>
			<title>Cloud</title>
			<desc>Internet</desc>
			<g id="shape2-2" v:mID="2" v:groupContext="shape" transform="translate(0,-15.1187)">
				<title>Feuille.2</title>
				<path d="M61.14 565.72 C60.76 562.37 57.72 559.75 53.98 559.75 C52.91 559.75 51.91 559.97 51.01 560.35 C49.25 557.06
							 45.6 554.65 38.77 554.84 C29.89 555.09 19.38 559.09 17.26 566.18 C14.73 566.67 13.1 568.04 12.13 569.87
							 C11.74 569.83 11.34 569.8 10.93 569.8 C5.08 569.8 0.59 574.07 0.33 579.32 C0 586.12 5.08 588.84 10.93
							 588.84 C11.76 588.84 12.57 588.75 13.35 588.58 C14.57 589.37 16.15 589.86 17.89 589.86 C19.49 589.86
							 20.97 589.44 22.14 588.75 C24.39 592.58 29.02 595.28 34.36 594.96 C39.97 594.63 43.34 593.44 45.33 591.59
							 C45.46 591.58 45.57 591.58 45.7 591.56 C51.98 590.76 54.74 589.13 55.63 586.45 C55.79 586.45 55.96 586.46
							 56.13 586.46 C64.27 586.46 70.87 584.08 70.87 575.75 C70.87 571.12 66.8 567.21 61.14 565.72 Z"
						class="st1"/>
			</g>
			<g id="shape1-4" v:mID="1" v:groupContext="groupContent">
				<v:textBlock v:margins="rect(4,4,4,4)" v:tabSpace="42.5197"/>
				<v:textRect cx="35.4331" cy="605.277" width="43.43" height="20.0036"/>
				<text x="18.85" y="608.28" class="st2" v:langID="1036"><v:paragraph v:horizAlign="1"/><v:tabList/>Internet</text>			</g>
		</g>
		<g id="group16-6" transform="translate(524.409,-297.638)" v:mID="16" v:groupContext="group">
			<v:custProps>
				<v:cp v:nameU="AssetNumber" v:lbl="Numéro d’inventaire" v:prompt="" v:type="0" v:format="" v:sortKey="Asset"
						v:invis="false" v:ask="false" v:langID="1036" v:cal="0"/>
				<v:cp v:nameU="SerialNumber" v:lbl="Numéro de série" v:prompt="" v:type="0" v:format="" v:sortKey="Asset"
						v:invis="false" v:ask="false" v:langID="1036" v:cal="0"/>
				<v:cp v:nameU="Location" v:lbl="Emplacement" v:prompt="" v:type="0" v:format="" v:sortKey="Asset" v:invis="false"
						v:ask="false" v:langID="1036" v:cal="0"/>
				<v:cp v:nameU="Building" v:lbl="Bâtiment" v:prompt="" v:type="0" v:format="" v:sortKey="Asset" v:invis="false"
						v:ask="false" v:langID="1036" v:cal="0"/>
				<v:cp v:nameU="Room" v:lbl="Salle" v:prompt="" v:type="0" v:format="" v:sortKey="Asset" v:invis="false"
						v:ask="false" v:langID="1036" v:cal="0"/>
				<v:cp v:nameU="Manufacturer" v:lbl="Fabricant" v:prompt="" v:type="0" v:format="" v:sortKey="Equipment"
						v:invis="false" v:ask="false" v:langID="1036" v:cal="0"/>
				<v:cp v:nameU="ProductNumber" v:lbl="Numéro de produit" v:prompt="" v:type="0" v:format="" v:sortKey="Equipment"
						v:invis="false" v:ask="false" v:langID="1036" v:cal="0"/>
				<v:cp v:nameU="PartNumber" v:lbl="Numéro de référence" v:prompt="" v:type="0" v:format="" v:sortKey="Equipment"
						v:invis="false" v:ask="false" v:langID="1036" v:cal="0"/>
				<v:cp v:nameU="ProductDescription" v:lbl="Description du produit" v:prompt="" v:type="0" v:format=""
						v:sortKey="Equipment" v:invis="false" v:ask="false" v:langID="1036" v:cal="0"/>
				<v:cp v:nameU="ShapeClass" v:lbl="ShapeClass" v:prompt="" v:type="0" v:format="" v:sortKey="" v:invis="true"
						v:ask="false" v:langID="1036" v:cal="0" v:val="VT4(Équipement)"/>
				<v:cp v:nameU="ShapeType" v:lbl="ShapeType" v:prompt="" v:type="0" v:format="" v:sortKey="" v:invis="true"
						v:ask="false" v:langID="1036" v:cal="0" v:val="VT4(Dispositif)"/>
				<v:cp v:nameU="SubShapeType" v:lbl="SubShapeType" v:prompt="" v:type="0" v:format="" v:sortKey="" v:invis="true"
						v:ask="false" v:langID="1036" v:cal="0" v:val="VT4(Pare-feu)"/>
			</v:custProps>
			<v:userDefs>
				<v:ud v:nameU="visVersion" v:prompt="" v:val="VT0(15):26"/>
				<v:ud v:nameU="ShapeClass" v:prompt="" v:val="VT0(5):26"/>
				<v:ud v:nameU="SolSH" v:prompt="" v:val="VT15({BF0433D9-CD73-4EB5-8390-8653BE590246}):41"/>
				<v:ud v:nameU="visLegendShape" v:prompt="" v:val="VT0(2):26"/>
			</v:userDefs>
			<title>Pare-feu</title>
			<desc>NGFW</desc>
			<g id="shape17-7" v:mID="17" v:groupContext="shape" transform="translate(0.545123,-7.63784)">
				<title>Feuille.17</title>
				<rect x="0" y="539.685" width="69.7759" height="55.5905" class="st1"/>
			</g>
			<g id="shape18-9" v:mID="18" v:groupContext="shape" transform="translate(0.795123,-7.88784)">
				<title>Feuille.18</title>
				<v:userDefs>
					<v:ud v:nameU="SurroundingRegionColor" v:prompt="" v:val="VT0(1):26"/>
					<v:ud v:nameU="SurroundingRegionColor" v:prompt="" v:val="VT5(#5b9bd5)"/>
				</v:userDefs>
				<path d="M0 587.41 L69.28 587.41" class="st3"/>
				<path d="M0 579.54 L69.28 579.54" class="st3"/>
				<path d="M0 571.67 L69.28 571.67" class="st3"/>
				<path d="M0 563.8 L69.28 563.8" class="st3"/>
				<path d="M0 555.93 L69.28 555.93" class="st3"/>
				<path d="M0 548.06 L69.28 548.06" class="st3"/>
				<path d="M17.32 595.28 L17.32 587.41" class="st3"/>
				<path d="M34.64 595.28 L34.64 587.41" class="st3"/>
				<path d="M51.96 595.28 L51.96 587.41" class="st3"/>
				<path d="M8.66 587.41 L8.66 579.54" class="st3"/>
				<path d="M25.98 587.41 L25.98 579.54" class="st3"/>
				<path d="M43.3 587.41 L43.3 579.54" class="st3"/>
				<path d="M60.62 587.41 L60.62 579.54" class="st3"/>
				<path d="M17.32 579.54 L17.32 571.67" class="st3"/>
				<path d="M34.64 579.54 L34.64 571.67" class="st3"/>
				<path d="M51.96 579.54 L51.96 571.67" class="st3"/>
				<path d="M8.66 571.67 L8.66 563.8" class="st3"/>
				<path d="M25.98 571.67 L25.98 563.8" class="st3"/>
				<path d="M43.3 571.67 L43.3 563.8" class="st3"/>
				<path d="M60.62 571.67 L60.62 563.8" class="st3"/>
				<path d="M17.32 563.8 L17.32 555.93" class="st3"/>
				<path d="M34.64 563.8 L34.64 555.93" class="st3"/>
				<path d="M51.96 563.8 L51.96 555.93" class="st3"/>
				<path d="M8.66 555.93 L8.66 548.06" class="st3"/>
				<path d="M25.98 555.93 L25.98 548.06" class="st3"/>
				<path d="M43.3 555.93 L43.3 548.06" class="st3"/>
				<path d="M60.62 555.93 L60.62 548.06" class="st3"/>
				<path d="M17.32 548.06 L17.32 540.19" class="st3"/>
				<path d="M34.64 548.06 L34.64 540.19" class="st3"/>
				<path d="M51.96 548.06 L51.96 540.19" class="st3"/>
			</g>
			<g id="shape16-41" v:mID="16" v:groupContext="groupContent">
				<v:textBlock v:margins="rect(4,4,4,4)" v:tabSpace="42.5197"/>
				<v:textRect cx="35.4331" cy="605.277" width="36.52" height="20.0036"/>
				<text x="22.31" y="608.28" class="st2" v:langID="1036"><v:paragraph v:horizAlign="1"/><v:tabList/>NGFW</text>			</g>
		</g>
		<g id="shape19-43" v:mID="19" v:groupContext="shape" v:layerMember="1" transform="translate(594.73,-325.984)">
			<title>Lien dynamique.34</title>
			<desc>Accès Internet</desc>
			<v:textBlock v:margins="rect(4,4,4,4)" v:tabSpace="42.5197"/>
			<v:textRect cx="54.2327" cy="588.189" width="80.99" height="22.4037"/>
			<path d="M0 588.19 L108.47 588.19" class="st4"/>
			<rect v:rectContext="textBkgnd" x="19.0996" y="580.989" width="70.2664" height="14.4001" class="st5"/>
			<text x="19.1" y="591.79" class="st6" v:langID="1036"><v:paragraph v:horizAlign="1"/><v:tabList/>Accès Internet</text>		</g>
		<g id="shape20-48" v:mID="20" v:groupContext="shape" v:layerMember="1" transform="translate(709.527,-321.844)">
			<title>Lien dynamique.50</title>
			<desc>VPN SSL</desc>
			<v:textBlock v:margins="rect(4,4,4,4)" v:tabSpace="42.5197"/>
			<v:textRect cx="-60.1215" cy="599.639" width="60.01" height="22.4037"/>
			<path d="M0 599.64 L-114.8 599.64 L-114.8 605.09" class="st7"/>
			<rect v:rectContext="textBkgnd" x="-79.8913" y="592.439" width="39.5395" height="14.4001" class="st5"/>
			<text x="-79.89" y="603.24" class="st8" v:langID="1036"><v:paragraph v:horizAlign="1"/><v:tabList/>VPN SSL</text>		</g>
		<g id="group21-53" transform="translate(347.244,-297.638)" v:mID="21" v:groupContext="group">
			<v:custProps>
				<v:cp v:nameU="AssetNumber" v:lbl="Numéro d’inventaire" v:prompt="" v:type="0" v:format="" v:sortKey="Asset"
						v:invis="false" v:ask="false" v:langID="1036" v:cal="0"/>
				<v:cp v:nameU="SerialNumber" v:lbl="Numéro de série" v:prompt="" v:type="0" v:format="" v:sortKey="Asset"
						v:invis="false" v:ask="false" v:langID="1036" v:cal="0"/>
				<v:cp v:nameU="Location" v:lbl="Emplacement" v:prompt="" v:type="0" v:format="" v:sortKey="Asset" v:invis="false"
						v:ask="false" v:langID="1036" v:cal="0"/>
				<v:cp v:nameU="Building" v:lbl="Bâtiment" v:prompt="" v:type="0" v:format="" v:sortKey="Asset" v:invis="false"
						v:ask="false" v:langID="1036" v:cal="0"/>
				<v:cp v:nameU="Room" v:lbl="Salle" v:prompt="" v:type="0" v:format="" v:sortKey="Asset" v:invis="false"
						v:ask="false" v:langID="1036" v:cal="0"/>
				<v:cp v:nameU="Manufacturer" v:lbl="Fabricant" v:prompt="" v:type="0" v:format="" v:sortKey="Equipment"
						v:invis="false" v:ask="false" v:langID="1036" v:cal="0"/>
				<v:cp v:nameU="ProductNumber" v:lbl="Numéro de produit" v:prompt="" v:type="0" v:format="" v:sortKey="Equipment"
						v:invis="false" v:ask="false" v:langID="1036" v:cal="0"/>
				<v:cp v:nameU="PartNumber" v:lbl="Numéro de référence" v:prompt="" v:type="0" v:format="" v:sortKey="Equipment"
						v:invis="false" v:ask="false" v:langID="1036" v:cal="0"/>
				<v:cp v:nameU="ProductDescription" v:lbl="Description du produit" v:prompt="" v:type="0" v:format=""
						v:sortKey="Equipment" v:invis="false" v:ask="false" v:langID="1036" v:cal="0"/>
				<v:cp v:nameU="NetworkName" v:lbl="Nom de réseau" v:prompt="" v:type="0" v:format="" v:sortKey="Network"
						v:invis="false" v:ask="false" v:langID="1036" v:cal="0"/>
				<v:cp v:nameU="IPAddress" v:lbl="Adresse IP" v:prompt="" v:type="0" v:format="" v:sortKey="Network" v:invis="false"
						v:ask="false" v:langID="1036" v:cal="0"/>
				<v:cp v:nameU="SubnetMask" v:lbl="Masque de sous-réseau" v:prompt="" v:type="0" v:format="" v:sortKey="Network"
						v:invis="false" v:ask="false" v:langID="1036" v:cal="0"/>
				<v:cp v:nameU="AdminInterface" v:lbl="Interface d’administration" v:prompt="" v:type="0" v:format=""
						v:sortKey="Network" v:invis="false" v:ask="false" v:langID="1036" v:cal="0"/>
				<v:cp v:nameU="NumberofPorts" v:lbl="Nombre de ports" v:prompt="" v:type="0" v:format="" v:sortKey="Network"
						v:invis="false" v:ask="false" v:langID="1036" v:cal="0"/>
				<v:cp v:nameU="CommunityString" v:lbl="Chaîne de communauté" v:prompt="" v:type="0" v:format="" v:sortKey="Network"
						v:invis="false" v:ask="false" v:langID="1036" v:cal="0"/>
				<v:cp v:nameU="NetworkDescription" v:lbl="Description de réseau" v:prompt="" v:type="0" v:format=""
						v:sortKey="Network" v:invis="false" v:ask="false" v:langID="1036" v:cal="0"/>
				<v:cp v:nameU="MACAddress" v:lbl="Adresse MAC" v:prompt="" v:type="0" v:format="" v:sortKey="Network"
						v:invis="false" v:ask="false" v:langID="1036" v:cal="0"/>
				<v:cp v:nameU="ShapeClass" v:lbl="ShapeClass" v:prompt="" v:type="0" v:format="" v:sortKey="" v:invis="true"
						v:ask="false" v:langID="1036" v:cal="0" v:val="VT4(Équipement)"/>
				<v:cp v:nameU="ShapeType" v:lbl="ShapeType" v:prompt="" v:type="0" v:format="" v:sortKey="" v:invis="true"
						v:ask="false" v:langID="1036" v:cal="0" v:val="VT4(Dispositif)"/>
				<v:cp v:nameU="SubShapeType" v:lbl="SubShapeType" v:prompt="" v:type="0" v:format="" v:sortKey="" v:invis="true"
						v:ask="false" v:langID="1036" v:cal="0" v:val="VT4(Commutateur)"/>
			</v:custProps>
			<v:userDefs>
				<v:ud v:nameU="visVersion" v:prompt="" v:val="VT0(15):26"/>
				<v:ud v:nameU="ShapeClass" v:prompt="" v:val="VT0(5):26"/>
				<v:ud v:nameU="SolSH" v:prompt="" v:val="VT15({BF0433D9-CD73-4EB5-8390-8653BE590246}):41"/>
				<v:ud v:nameU="visLegendShape" v:prompt="" v:val="VT0(2):26"/>
			</v:userDefs>
			<title>Commutateur.12</title>
			<g id="shape22-54" v:mID="22" v:groupContext="shape" transform="translate(0,-23.9715)">
				<title>Feuille.22</title>
				<path d="M65.4 595.28 L66.82 592.44 L4.05 592.44 L5.46 595.28 L65.4 595.28 ZM0 591.09 L70.87 591.09 L70.87 572.35
							 L0 572.35 L0 591.09 Z" class="st1"/>
			</g>
			<g id="shape23-56" v:mID="23" v:groupContext="shape" transform="translate(54.6669,-31.7016)">
				<title>Feuille.23</title>
				<rect x="0" y="583.744" width="12.1507" height="11.532" class="st9"/>
			</g>
			<g id="shape24-58" v:mID="24" v:groupContext="shape" transform="translate(5.61827,-32.827)">
				<title>Feuille.24</title>
				<v:userDefs>
					<v:ud v:nameU="SurroundingRegionColor" v:prompt="" v:val="VT0(1):26"/>
					<v:ud v:nameU="SurroundingRegionColor" v:prompt="" v:val="VT5(#5b9bd5)"/>
				</v:userDefs>
				<path d="M4.98 591.64 L0 591.64 L0 594.03 L1.3 594.03 L1.3 595.28 L3.69 595.28 L3.69 594.03 L4.98 594.03 L4.98 591.64
							 ZM12.99 591.64 L8.01 591.64 L8.01 594.03 L9.3 594.03 L9.3 595.28 L11.7 595.28 L11.7 594.03 L12.99 594.03
							 L12.99 591.64 ZM21 591.64 L16.02 591.64 L16.02 594.03 L17.31 594.03 L17.31 595.28 L19.7 595.28 L19.7
							 594.03 L21 594.03 L21 591.64 ZM29.01 591.64 L24.02 591.64 L24.02 594.03 L25.32 594.03 L25.32 595.28
							 L27.71 595.28 L27.71 594.03 L29.01 594.03 L29.01 591.64 ZM37.02 591.64 L32.03 591.64 L32.03 594.03 L33.33
							 594.03 L33.33 595.28 L35.72 595.28 L35.72 594.03 L37.02 594.03 L37.02 591.64 ZM37.02 585.86 L32.03 585.86
							 L32.03 588.26 L33.33 588.26 L33.33 589.5 L35.72 589.5 L35.72 588.26 L37.02 588.26 L37.02 585.86 ZM29.01
							 585.86 L24.02 585.86 L24.02 588.26 L25.32 588.26 L25.32 589.5 L27.71 589.5 L27.71 588.26 L29.01 588.26
							 L29.01 585.86 ZM21 585.86 L16.02 585.86 L16.02 588.26 L17.31 588.26 L17.31 589.5 L19.7 589.5 L19.7 588.26
							 L21 588.26 L21 585.86 ZM12.99 585.86 L8.01 585.86 L8.01 588.26 L9.3 588.26 L9.3 589.5 L11.7 589.5 L11.7
							 588.26 L12.99 588.26 L12.99 585.86 ZM4.98 585.86 L0 585.86 L0 588.26 L1.3 588.26 L1.3 589.5 L3.69 589.5
							 L3.69 588.26 L4.98 588.26 L4.98 585.86 Z" class="st10"/>
			</g>
			<g id="shape25-61" v:mID="25" v:groupContext="shape" transform="translate(55.6646,-33.6193)">
				<title>Feuille.25</title>
				<v:userDefs>
					<v:ud v:nameU="SurroundingRegionColor" v:prompt="" v:val="VT0(1):26"/>
					<v:ud v:nameU="SurroundingRegionColor" v:prompt="" v:val="VT5(#aad288)"/>
				</v:userDefs>
				<path d="M5.63 591.16 L7.14 589.2 L8.86 589.2 L7.97 590.08 L9 590.08 L10.16 588.83 L9.01 587.58 L7.96 587.58 L8.85
							 588.45 L6.61 588.45 L5.08 590.44 L3.55 588.45 L1.31 588.45 L2.19 587.58 L1.15 587.58 L0 588.83 L1.15
							 590.08 L2.19 590.08 L1.3 589.2 L3.01 589.2 L4.52 591.16 L2.6 593.65 L1.3 593.65 L2.19 592.77 L1.15 592.77
							 L0 594.02 L1.15 595.28 L2.19 595.28 L1.31 594.4 L3.14 594.4 L5.08 591.88 L7.02 594.4 L8.85 594.4 L7.96
							 595.28 L9.01 595.28 L10.16 594.02 L9 592.77 L7.97 592.77 L8.86 593.65 L7.55 593.65 L5.63 591.16 Z"
						class="st10"/>
			</g>
		</g>
		<g id="shape26-64" v:mID="26" v:groupContext="shape" v:layerMember="1" transform="translate(418.11,-325.984)">
			<title>Lien dynamique</title>
			<desc>Fibre</desc>
			<v:textBlock v:margins="rect(4,4,4,4)" v:tabSpace="42.5197"/>
			<v:textRect cx="53.4222" cy="588.189" width="60" height="22.4037"/>
			<path d="M0 588.19 L106.84 588.19" class="st11"/>
			<rect v:rectContext="textBkgnd" x="41.0588" y="580.989" width="24.7269" height="14.4001" class="st5"/>
			<text x="41.06" y="591.79" class="st12" v:langID="1036"><v:paragraph v:horizAlign="1"/><v:tabList/>Fibre</text>		</g>
		<g id="group27-69" transform="translate(262.205,-375.591)" v:mID="27" v:groupContext="group">
			<v:custProps>
				<v:cp v:nameU="AssetNumber" v:lbl="Numéro d’inventaire" v:prompt="" v:type="0" v:format="" v:sortKey="Asset"
						v:invis="false" v:ask="false" v:langID="1036" v:cal="0"/>
				<v:cp v:nameU="SerialNumber" v:lbl="Numéro de série" v:prompt="" v:type="0" v:format="" v:sortKey="Asset"
						v:invis="false" v:ask="false" v:langID="1036" v:cal="0"/>
				<v:cp v:nameU="Location" v:lbl="Emplacement" v:prompt="" v:type="0" v:format="" v:sortKey="Asset" v:invis="false"
						v:ask="false" v:langID="1036" v:cal="0"/>
				<v:cp v:nameU="Building" v:lbl="Bâtiment" v:prompt="" v:type="0" v:format="" v:sortKey="Asset" v:invis="false"
						v:ask="false" v:langID="1036" v:cal="0"/>
				<v:cp v:nameU="Room" v:lbl="Salle" v:prompt="" v:type="0" v:format="" v:sortKey="Asset" v:invis="false"
						v:ask="false" v:langID="1036" v:cal="0"/>
				<v:cp v:nameU="Manufacturer" v:lbl="Fabricant" v:prompt="" v:type="0" v:format="" v:sortKey="Equipment"
						v:invis="false" v:ask="false" v:langID="1036" v:cal="0"/>
				<v:cp v:nameU="ProductNumber" v:lbl="Numéro de produit" v:prompt="" v:type="0" v:format="" v:sortKey="Equipment"
						v:invis="false" v:ask="false" v:langID="1036" v:cal="0"/>
				<v:cp v:nameU="PartNumber" v:lbl="Numéro de référence" v:prompt="" v:type="0" v:format="" v:sortKey="Equipment"
						v:invis="false" v:ask="false" v:langID="1036" v:cal="0"/>
				<v:cp v:nameU="ProductDescription" v:lbl="Description du produit" v:prompt="" v:type="0" v:format=""
						v:sortKey="Equipment" v:invis="false" v:ask="false" v:langID="1036" v:cal="0"/>
				<v:cp v:nameU="ShapeClass" v:lbl="ShapeClass" v:prompt="" v:type="0" v:format="" v:sortKey="" v:invis="true"
						v:ask="false" v:langID="1036" v:cal="0" v:val="VT4(Équipement)"/>
				<v:cp v:nameU="ShapeType" v:lbl="ShapeType" v:prompt="" v:type="0" v:format="" v:sortKey="" v:invis="true"
						v:ask="false" v:langID="1036" v:cal="0" v:val="VT4(Téléphone)"/>
			</v:custProps>
			<v:userDefs>
				<v:ud v:nameU="visVersion" v:prompt="" v:val="VT0(15):26"/>
				<v:ud v:nameU="ShapeClass" v:prompt="" v:val="VT0(5):26"/>
				<v:ud v:nameU="SolSH" v:prompt="" v:val="VT15({BF0433D9-CD73-4EB5-8390-8653BE590246}):41"/>
				<v:ud v:nameU="visLegendShape" v:prompt="" v:val="VT0(2):26"/>
			</v:userDefs>
			<title>Téléphone.37</title>
			<desc>Téléphones VOIP</desc>
			<g id="shape28-70" v:mID="28" v:groupContext="shape" transform="translate(21.7516,0)">
				<title>Feuille.28</title>
				<path d="M25.37 576.01 L21.78 576.01 L21.78 595.27 C22.58 595.28 25.36 595.26 25.36 595.26 C26.46 595.26 27.35 594.36
							 27.35 593.26 L27.36 578 C27.36 576.9 26.47 576.01 25.37 576.01 ZM25.37 524.41 L21.89 524.41 C21.85 524.41
							 21.81 524.41 21.78 524.41 L21.78 543.7 L25.37 543.7 C26.47 543.7 27.36 542.81 27.36 541.71 L27.36 526.4
							 C27.36 525.3 26.47 524.41 25.37 524.41 ZM14.3 545.2 C14.93 543.55 16.65 543.7 16.65 543.7 L18.75 543.7
							 L18.75 524.66 C10.41 525.98 6.7 532.25 6.7 532.25 C-4.1 551.97 0.87 572.18 3.09 579.02 C3.6 580.58 3.97
							 581.44 3.97 581.44 C7.02 590.52 14.48 593.67 18.75 594.75 L18.75 576.01 L16.2 576.01 C14.71 576.01 14.36
							 574.64 14.36 574.64 C10 557 14.06 545.84 14.29 545.23 L14.3 545.2 Z" class="st1"/>
			</g>
			<g id="shape27-72" v:mID="27" v:groupContext="groupContent">
				<v:textBlock v:margins="rect(4,4,4,4)" v:tabSpace="42.5197"/>
				<v:textRect cx="35.4331" cy="517.323" width="79.55" height="20.0036"/>
				<text x="0.79" y="520.32" class="st2" v:langID="1036"><v:paragraph v:horizAlign="1"/><v:tabList/>Téléphones VOIP</text>			</g>
		</g>
		<g id="group32-74" transform="translate(148.819,-219.685)" v:mID="32" v:groupContext="group">
			<v:custProps>
				<v:cp v:nameU="AssetNumber" v:lbl="Numéro d’inventaire" v:prompt="" v:type="0" v:format="" v:sortKey="Asset"
						v:invis="false" v:ask="false" v:langID="1036" v:cal="0"/>
				<v:cp v:nameU="SerialNumber" v:lbl="Numéro de série" v:prompt="" v:type="0" v:format="" v:sortKey="Asset"
						v:invis="false" v:ask="false" v:langID="1036" v:cal="0"/>
				<v:cp v:nameU="Location" v:lbl="Emplacement" v:prompt="" v:type="0" v:format="" v:sortKey="Asset" v:invis="false"
						v:ask="false" v:langID="1036" v:cal="0"/>
				<v:cp v:nameU="Building" v:lbl="Bâtiment" v:prompt="" v:type="0" v:format="" v:sortKey="Asset" v:invis="false"
						v:ask="false" v:langID="1036" v:cal="0"/>
				<v:cp v:nameU="Room" v:lbl="Salle" v:prompt="" v:type="0" v:format="" v:sortKey="Asset" v:invis="false"
						v:ask="false" v:langID="1036" v:cal="0"/>
				<v:cp v:nameU="Manufacturer" v:lbl="Fabricant" v:prompt="" v:type="0" v:format="" v:sortKey="Equipment"
						v:invis="false" v:ask="false" v:langID="1036" v:cal="0"/>
				<v:cp v:nameU="ProductNumber" v:lbl="Numéro de produit" v:prompt="" v:type="0" v:format="" v:sortKey="Equipment"
						v:invis="false" v:ask="false" v:langID="1036" v:cal="0"/>
				<v:cp v:nameU="PartNumber" v:lbl="Numéro de référence" v:prompt="" v:type="0" v:format="" v:sortKey="Equipment"
						v:invis="false" v:ask="false" v:langID="1036" v:cal="0"/>
				<v:cp v:nameU="ProductDescription" v:lbl="Description du produit" v:prompt="" v:type="0" v:format=""
						v:sortKey="Equipment" v:invis="false" v:ask="false" v:langID="1036" v:cal="0"/>
				<v:cp v:nameU="NetworkName" v:lbl="Nom de réseau" v:prompt="" v:type="0" v:format="" v:sortKey="Network"
						v:invis="false" v:ask="false" v:langID="1036" v:cal="0"/>
				<v:cp v:nameU="IPAddress" v:lbl="Adresse IP" v:prompt="" v:type="0" v:format="" v:sortKey="Network" v:invis="false"
						v:ask="false" v:langID="1036" v:cal="0"/>
				<v:cp v:nameU="SubnetMask" v:lbl="Masque de sous-réseau" v:prompt="" v:type="0" v:format="" v:sortKey="Network"
						v:invis="false" v:ask="false" v:langID="1036" v:cal="0"/>
				<v:cp v:nameU="AdminInterface" v:lbl="Interface d’administration" v:prompt="" v:type="0" v:format=""
						v:sortKey="Network" v:invis="false" v:ask="false" v:langID="1036" v:cal="0"/>
				<v:cp v:nameU="NumberofPorts" v:lbl="Nombre de ports" v:prompt="" v:type="0" v:format="" v:sortKey="Network"
						v:invis="false" v:ask="false" v:langID="1036" v:cal="0"/>
				<v:cp v:nameU="CommunityString" v:lbl="Chaîne de communauté" v:prompt="" v:type="0" v:format="" v:sortKey="Network"
						v:invis="false" v:ask="false" v:langID="1036" v:cal="0"/>
				<v:cp v:nameU="NetworkDescription" v:lbl="Description de réseau" v:prompt="" v:type="0" v:format=""
						v:sortKey="Network" v:invis="false" v:ask="false" v:langID="1036" v:cal="0"/>
				<v:cp v:nameU="MACAddress" v:lbl="Adresse MAC" v:prompt="" v:type="0" v:format="" v:sortKey="Network"
						v:invis="false" v:ask="false" v:langID="1036" v:cal="0"/>
				<v:cp v:nameU="ShapeClass" v:lbl="ShapeClass" v:prompt="" v:type="0" v:format="" v:sortKey="" v:invis="true"
						v:ask="false" v:langID="1036" v:cal="0" v:val="VT4(Équipement)"/>
				<v:cp v:nameU="ShapeType" v:lbl="ShapeType" v:prompt="" v:type="0" v:format="" v:sortKey="" v:invis="true"
						v:ask="false" v:langID="1036" v:cal="0" v:val="VT4(Dispositif)"/>
				<v:cp v:nameU="SubShapeType" v:lbl="SubShapeType" v:prompt="" v:type="0" v:format="" v:sortKey="" v:invis="true"
						v:ask="false" v:langID="1036" v:cal="0" v:val="VT4(MultiPériphérique)"/>
			</v:custProps>
			<v:userDefs>
				<v:ud v:nameU="visVersion" v:prompt="" v:val="VT0(15):26"/>
				<v:ud v:nameU="ShapeClass" v:prompt="" v:val="VT0(5):26"/>
				<v:ud v:nameU="SolSH" v:prompt="" v:val="VT15({BF0433D9-CD73-4EB5-8390-8653BE590246}):41"/>
				<v:ud v:nameU="visLegendShape" v:prompt="" v:val="VT0(2):26"/>
			</v:userDefs>
			<title>Périphérique multifonction</title>
			<desc>Imprimantes</desc>
			<g id="shape33-75" v:mID="33" v:groupContext="shape" transform="translate(8.88923,-13.8367)">
				<title>Feuille.33</title>
				<path d="M61.98 557.57 L9.6 557.57 C4.3 557.57 0 561.87 0 567.17 L0 595.28 L61.98 595.28 L61.98 557.57 ZM61.98 557.57
							 L61.98 556.19 L9.11 543.56 L8.47 546.71 L54.49 557.57 L61.98 557.57 Z" class="st1"/>
			</g>
			<g id="shape34-77" v:mID="34" v:groupContext="shape" transform="translate(-1.40887E-13,-22.4666)">
				<title>Feuille.34</title>
				<path d="M8.89 574.12 L0 574.12 L8.89 595.28 L8.89 574.12 Z" class="st13"/>
			</g>
			<g id="shape35-79" v:mID="35" v:groupContext="shape" transform="translate(16.7271,-5.31187)">
				<title>Feuille.35</title>
				<v:userDefs>
					<v:ud v:nameU="SurroundingRegionColor" v:prompt="" v:val="VT5(1)"/>
					<v:ud v:nameU="SurroundingRegionColor" v:prompt="" v:val="VT5(#5b9bd5)"/>
				</v:userDefs>
				<path d="M0 595.28 L43.04 595.28 L43.04 579.06 L0 579.06 L0 595.28 Z" class="st14"/>
				<path d="M0 595.28 L43.04 595.28 L43.04 579.06 L0 579.06 L0 595.28" class="st15"/>
				<path d="M8.59 586.86 L35.7 586.86" class="st15"/>
			</g>
			<g id="shape36-83" v:mID="36" v:groupContext="shape" transform="translate(42.406,-41.5491)">
				<title>Feuille.36</title>
				<path d="M4.26 593.15 A2.12832 2.12832 -180 1 0 -0 593.15 A2.12832 2.12832 -180 1 0 4.26 593.15 ZM10.44 593.15 A2.12832
							 2.12832 -180 1 0 6.18 593.15 A2.12832 2.12832 -180 1 0 10.44 593.15 Z" class="st9"/>
			</g>
			<g id="shape37-85" v:mID="37" v:groupContext="shape" transform="translate(56.2582,-34.6711)">
				<title>Feuille.37</title>
				<v:userDefs>
					<v:ud v:nameU="SurroundingRegionColor" v:prompt="" v:val="VT5(1)"/>
					<v:ud v:nameU="SurroundingRegionColor" v:prompt="" v:val="VT5(#5b9bd5)"/>
				</v:userDefs>
				<path d="M2.03 594.26 A1.01421 1.01421 -180 1 0 -0 594.26 A1.01421 1.01421 -180 1 0 2.03 594.26 ZM2.03 591.23 A1.01421
							 1.01421 -180 1 0 -0 591.23 A1.01421 1.01421 -180 1 0 2.03 591.23 ZM2.03 588.19 A1.01421 1.01421 -180
							 1 0 -0 588.19 A1.01421 1.01421 -180 1 0 2.03 588.19 ZM2.03 585.16 A1.01421 1.01421 -180 1 0 -0 585.16
							 A1.01421 1.01421 -180 1 0 2.03 585.16 ZM5.71 594.26 A1.01349 1.01349 -180 1 0 3.69 594.26 A1.01349 1.01349
							 -180 1 0 5.71 594.26 ZM5.71 591.23 A1.01349 1.01349 -180 1 0 3.69 591.23 A1.01349 1.01349 -180 1 0 5.71
							 591.23 ZM5.71 588.19 A1.01349 1.01349 -180 1 0 3.69 588.19 A1.01349 1.01349 -180 1 0 5.71 588.19 ZM5.71
							 585.16 A1.01349 1.01349 -180 1 0 3.69 585.16 A1.01349 1.01349 -180 1 0 5.71 585.16 ZM9.4 594.26 A1.01349
							 1.01349 -180 1 0 7.37 594.26 A1.01349 1.01349 -180 1 0 9.4 594.26 ZM9.4 591.23 A1.01349 1.01349 -180
							 1 0 7.37 591.23 A1.01349 1.01349 -180 1 0 9.4 591.23 ZM9.4 588.19 A1.01349 1.01349 -180 1 0 7.37 588.19
							 A1.01349 1.01349 -180 1 0 9.4 588.19 ZM9.4 585.16 A1.01349 1.01349 -180 1 0 7.37 585.16 A1.01349 1.01349
							 -180 1 0 9.4 585.16 Z" class="st10"/>
			</g>
			<g id="shape32-88" v:mID="32" v:groupContext="groupContent">
				<v:textBlock v:margins="rect(4,4,4,4)" v:tabSpace="42.5197"/>
				<v:textRect cx="35.4331" cy="605.277" width="62.08" height="20.0036"/>
				<text x="9.53" y="608.28" class="st2" v:langID="1036"><v:paragraph v:horizAlign="1"/><v:tabList/>Imprimantes</text>			</g>
		</g>
		<g id="group38-90" transform="translate(148.819,-375.591)" v:mID="38" v:groupContext="group">
			<v:custProps>
				<v:cp v:nameU="AssetNumber" v:lbl="Numéro d’inventaire" v:prompt="" v:type="0" v:format="" v:sortKey="Asset"
						v:invis="false" v:ask="false" v:langID="1036" v:cal="0"/>
				<v:cp v:nameU="SerialNumber" v:lbl="Numéro de série" v:prompt="" v:type="0" v:format="" v:sortKey="Asset"
						v:invis="false" v:ask="false" v:langID="1036" v:cal="0"/>
				<v:cp v:nameU="Location" v:lbl="Emplacement" v:prompt="" v:type="0" v:format="" v:sortKey="Asset" v:invis="false"
						v:ask="false" v:langID="1036" v:cal="0"/>
				<v:cp v:nameU="Building" v:lbl="Bâtiment" v:prompt="" v:type="0" v:format="" v:sortKey="Asset" v:invis="false"
						v:ask="false" v:langID="1036" v:cal="0"/>
				<v:cp v:nameU="Room" v:lbl="Salle" v:prompt="" v:type="0" v:format="" v:sortKey="Asset" v:invis="false"
						v:ask="false" v:langID="1036" v:cal="0"/>
				<v:cp v:nameU="Manufacturer" v:lbl="Fabricant" v:prompt="" v:type="0" v:format="" v:sortKey="Equipment"
						v:invis="false" v:ask="false" v:langID="1036" v:cal="0"/>
				<v:cp v:nameU="ProductNumber" v:lbl="Numéro de produit" v:prompt="" v:type="0" v:format="" v:sortKey="Equipment"
						v:invis="false" v:ask="false" v:langID="1036" v:cal="0"/>
				<v:cp v:nameU="PartNumber" v:lbl="Numéro de référence" v:prompt="" v:type="0" v:format="" v:sortKey="Equipment"
						v:invis="false" v:ask="false" v:langID="1036" v:cal="0"/>
				<v:cp v:nameU="ProductDescription" v:lbl="Description du produit" v:prompt="" v:type="0" v:format=""
						v:sortKey="Equipment" v:invis="false" v:ask="false" v:langID="1036" v:cal="0"/>
				<v:cp v:nameU="NetworkName" v:lbl="Nom de réseau" v:prompt="" v:type="0" v:format="" v:sortKey="Network"
						v:invis="false" v:ask="false" v:langID="1036" v:cal="0"/>
				<v:cp v:nameU="IPAddress" v:lbl="Adresse IP" v:prompt="" v:type="0" v:format="" v:sortKey="Network" v:invis="false"
						v:ask="false" v:langID="1036" v:cal="0"/>
				<v:cp v:nameU="SubnetMask" v:lbl="Masque de sous-réseau" v:prompt="" v:type="0" v:format="" v:sortKey="Network"
						v:invis="false" v:ask="false" v:langID="1036" v:cal="0"/>
				<v:cp v:nameU="AdminInterface" v:lbl="Interface d’administration" v:prompt="" v:type="0" v:format=""
						v:sortKey="Network" v:invis="false" v:ask="false" v:langID="1036" v:cal="0"/>
				<v:cp v:nameU="NumberofPorts" v:lbl="Nombre de ports" v:prompt="" v:type="0" v:format="" v:sortKey="Network"
						v:invis="false" v:ask="false" v:langID="1036" v:cal="0"/>
				<v:cp v:nameU="CommunityString" v:lbl="Chaîne de communauté" v:prompt="" v:type="0" v:format="" v:sortKey="Network"
						v:invis="false" v:ask="false" v:langID="1036" v:cal="0"/>
				<v:cp v:nameU="NetworkDescription" v:lbl="Description de réseau" v:prompt="" v:type="0" v:format=""
						v:sortKey="Network" v:invis="false" v:ask="false" v:langID="1036" v:cal="0"/>
				<v:cp v:nameU="MACAddress" v:lbl="Adresse MAC" v:prompt="" v:type="0" v:format="" v:sortKey="Network"
						v:invis="false" v:ask="false" v:langID="1036" v:cal="0"/>
				<v:cp v:nameU="CPU" v:lbl="UC" v:prompt="" v:type="0" v:format="" v:sortKey="Workstation" v:invis="false"
						v:ask="false" v:langID="1036" v:cal="0"/>
				<v:cp v:nameU="Memory" v:lbl="Mémoire" v:prompt="" v:type="0" v:format="" v:sortKey="Workstation" v:invis="false"
						v:ask="false" v:langID="1036" v:cal="0"/>
				<v:cp v:nameU="OperatingSystem" v:lbl="Système d’exploitation" v:prompt="" v:type="0" v:format=""
						v:sortKey="Workstation" v:invis="false" v:ask="false" v:langID="1036" v:cal="0"/>
				<v:cp v:nameU="HardDriveSize" v:lbl="Capacité du disque dur" v:prompt="" v:type="0" v:format=""
						v:sortKey="Workstation" v:invis="false" v:ask="false" v:langID="1036" v:cal="0"/>
				<v:cp v:nameU="Department" v:lbl="Service" v:prompt="" v:type="0" v:format="" v:sortKey="" v:invis="false"
						v:ask="false" v:langID="1036" v:cal="0"/>
				<v:cp v:nameU="ShapeClass" v:lbl="ShapeClass" v:prompt="" v:type="0" v:format="" v:sortKey="" v:invis="true"
						v:ask="false" v:langID="1036" v:cal="0" v:val="VT4(Équipement)"/>
				<v:cp v:nameU="ShapeType" v:lbl="ShapeType" v:prompt="" v:type="0" v:format="" v:sortKey="" v:invis="true"
						v:ask="false" v:langID="1036" v:cal="0" v:val="VT4(Ordinateur)"/>
				<v:cp v:nameU="SubShapeType" v:lbl="SubShapeType" v:prompt="" v:type="0" v:format="" v:sortKey="" v:invis="true"
						v:ask="false" v:langID="1036" v:cal="0" v:val="VT4(Bureau)"/>
				<v:cp v:nameU="BelongsTo" v:lbl="Propriétaire" v:prompt="" v:type="0" v:format="" v:sortKey="" v:invis="true"
						v:ask="false" v:langID="1036" v:cal="0"/>
			</v:custProps>
			<v:userDefs>
				<v:ud v:nameU="visVersion" v:prompt="" v:val="VT0(15):26"/>
				<v:ud v:nameU="ShapeClass" v:prompt="" v:val="VT0(5):26"/>
				<v:ud v:nameU="SolSH" v:prompt="" v:val="VT15({BF0433D9-CD73-4EB5-8390-8653BE590246}):41"/>
				<v:ud v:nameU="visLegendShape" v:prompt="" v:val="VT0(2):26"/>
			</v:userDefs>
			<title>PC.40</title>
			<desc>PCs</desc>
			<g id="shape39-91" v:mID="39" v:groupContext="shape" transform="translate(0,-4.72617)">
				<title>Feuille.39</title>
				<path d="M48.01 577.87 L48.01 583.85 L51.62 583.85 L55.04 588.14 L70.87 588.14 L70.87 533.86 L48.01 533.86 L48.01
							 541.65 L57.81 541.65 L57.81 577.87 L48.01 577.87 ZM57.81 541.65 L3.53 541.65 L3.53 577.87 L57.81 577.87
							 L57.81 541.65 ZM60.73 595.28 L51.62 583.85 L9.11 583.85 L0 595.28 L60.73 595.28 ZM35.14 577.87 L25.59
							 577.87 L25.59 583.85 L35.14 583.85 L35.14 577.87 Z" class="st1"/>
			</g>
			<g id="shape40-93" v:mID="40" v:groupContext="shape" transform="translate(7.05282,-25.393)">
				<title>Feuille.40</title>
				<v:userDefs>
					<v:ud v:nameU="SurroundingRegionColor" v:prompt="" v:val="VT5(1)"/>
					<v:ud v:nameU="SurroundingRegionColor" v:prompt="" v:val="VT5(#5b9bd5)"/>
				</v:userDefs>
				<path d="M47.32 565.91 L0 565.91 L0 595.28 L47.32 595.28 L47.32 565.91 Z" class="st16"/>
			</g>
			<g id="shape41-95" v:mID="41" v:groupContext="shape" transform="translate(8.26528,-7.08364)">
				<title>Feuille.41</title>
				<v:userDefs>
					<v:ud v:nameU="SurroundingRegionColor" v:prompt="" v:val="VT5(1)"/>
					<v:ud v:nameU="SurroundingRegionColor" v:prompt="" v:val="VT5(#5b9bd5)"/>
				</v:userDefs>
				<path d="M53.45 542.29 L58.34 542.29 L58.34 540.39 L53.45 540.39 L53.45 542.29 ZM53.45 545.69 L58.34 545.69 L58.34
							 543.79 L53.45 543.79 L53.45 545.69 ZM41.47 590.85 L38.77 590.85 L40.28 592.52 L43.19 592.52 L41.47 590.85
							 ZM38.42 587.87 L36.1 587.87 L37.72 589.67 L40.27 589.67 L38.42 587.87 ZM37.32 590.85 L34.62 590.85 L35.81
							 592.52 L38.72 592.52 L37.32 590.85 ZM34.84 587.87 L32.52 587.87 L33.79 589.67 L36.35 589.67 L34.84 587.87
							 ZM33.17 590.85 L30.47 590.85 L31.33 592.52 L34.24 592.52 L33.17 590.85 ZM31.27 587.87 L28.95 587.87
							 L29.88 589.71 L32.44 589.71 L31.27 587.87 ZM29.02 590.85 L26.32 590.85 L26.86 592.52 L29.77 592.52 L29.02
							 590.85 ZM27.75 587.99 L25.4 587.99 L25.95 589.71 L28.51 589.71 L27.75 587.99 ZM24.87 590.85 L22.17 590.85
							 L22.38 592.52 L25.29 592.52 L24.87 590.85 ZM24.18 588.14 L21.82 588.14 L22.04 589.82 L24.61 589.82 L24.18
							 588.14 ZM20.55 588.14 L18.19 588.14 L18.08 589.82 L20.65 589.82 L20.55 588.14 ZM20.71 590.85 L18.01
							 590.85 L17.9 592.52 L20.81 592.52 L20.71 590.85 ZM16.93 588.14 L14.57 588.14 L14.13 589.82 L16.7 589.82
							 L16.93 588.14 ZM16.56 590.85 L13.86 590.85 L13.43 592.52 L16.34 592.52 L16.56 590.85 ZM31.37 593.6 L12.32
							 593.6 L11.83 595.28 L32.19 595.28 L31.37 593.6 ZM13.3 588.14 L10.94 588.14 L10.18 589.82 L12.75 589.82
							 L13.3 588.14 ZM12.41 590.85 L9.71 590.85 L8.95 592.52 L11.86 592.52 L12.41 590.85 ZM9.67 588.14 L7.31
							 588.14 L6.22 589.82 L8.79 589.82 L9.67 588.14 ZM8.26 590.85 L5.56 590.85 L4.48 592.52 L7.39 592.52 L8.26
							 590.85 ZM6.04 588.14 L3.68 588.14 L2.27 589.82 L4.84 589.82 L6.04 588.14 ZM4.11 590.85 L1.41 590.85
							 L0 592.52 L2.91 592.52 L4.11 590.85 Z" class="st10"/>
			</g>
			<g id="shape38-98" v:mID="38" v:groupContext="groupContent">
				<v:textBlock v:margins="rect(4,4,4,4)" v:tabSpace="42.5197"/>
				<v:textRect cx="35.4331" cy="605.277" width="24.68" height="20.0036"/>
				<text x="28.23" y="608.28" class="st2" v:langID="1036"><v:paragraph v:horizAlign="1"/><v:tabList/>PCs</text>			</g>
		</g>
		<g id="shape42-100" v:mID="42" v:groupContext="shape" v:layerMember="1" transform="translate(219.685,-403.937)">
			<title>Lien dynamique.42</title>
			<path d="M0 588.19 L64.27 588.19" class="st4"/>
		</g>
		<g id="shape43-103" v:mID="43" v:groupContext="shape" v:layerMember="1" transform="translate(382.677,-344.532)">
			<title>Lien dynamique.43</title>
			<path d="M0 595.28 L0 528.78 L-86.36 528.78" class="st4"/>
		</g>
		<g id="shape45-106" v:mID="45" v:groupContext="shape" v:layerMember="1" transform="translate(219.685,-255.118)">
			<title>Lien dynamique.45</title>
			<path d="M0 595.28 L162.99 595.28 L162.99 528.78" class="st4"/>
		</g>
		<g id="shape57-109" v:mID="57" v:groupContext="shape" transform="translate(240.945,-517.323)">
			<title>Feuille.57</title>
			<desc>Sites Administratifs</desc>
			<v:textBlock v:margins="rect(4,4,4,4)" v:tabSpace="42.5197"/>
			<v:textRect cx="189.213" cy="574.016" width="378.43" height="42.5197"/>
			<rect x="0" y="552.756" width="378.425" height="42.5197" class="st17"/>
			<text x="124.58" y="578.82" class="st18" v:langID="1036"><v:paragraph v:horizAlign="1"/><v:tabList/>Sites Administratifs</text>		</g>
	</g>
</svg>
