<?xml version="1.0" encoding="UTF-8" standalone="no"?>
<!DOCTYPE svg PUBLIC "-//W3C//DTD SVG 1.1//EN" "http://www.w3.org/Graphics/SVG/1.1/DTD/svg11.dtd">
<!-- Généré par Microsoft Visio, SVG Export Schema_WAN.svg WAN -->
<svg xmlns="http://www.w3.org/2000/svg" xmlns:xlink="http://www.w3.org/1999/xlink" xmlns:ev="http://www.w3.org/2001/xml-events"
		xmlns:v="http://schemas.microsoft.com/visio/2003/SVGExtensions/" width="11.6929in" height="8.26772in"
		viewBox="0 0 841.89 595.276" xml:space="preserve" color-interpolation-filters="sRGB" class="st20">
	<v:documentProperties v:langID="1036" v:metric="true" v:viewMarkup="false">
		<v:userDefs>
			<v:ud v:nameU="msvNoAutoConnect" v:prompt="" v:val="VT0(0):26"/>
		</v:userDefs>
	</v:documentProperties>

	<style type="text/css">
	<![CDATA[
		.st1 {fill:#5b9bd5;stroke:#ffffff;stroke-linecap:round;stroke-linejoin:round;stroke-width:0.5}
		.st2 {fill:#1e4a73;font-family:Calibri;font-size:1.5em;font-weight:bold}
		.st3 {fill:#5b9bd5}
		.st4 {stroke:#ffffff;stroke-linecap:round;stroke-linejoin:round;stroke-width:0.5}
		.st5 {fill:#ffffff}
		.st6 {fill:#a5a5a5;stroke:#ffffff;stroke-linecap:round;stroke-linejoin:round;stroke-width:0.5}
		.st7 {fill:#1e4a73;font-family:Calibri;font-size:1.00001em}
		.st8 {stroke:#5592c9;stroke-linecap:round;stroke-linejoin:round;stroke-width:2.25}
		.st9 {stroke:#ff0000;stroke-linecap:round;stroke-linejoin:round;stroke-width:2.25}
		.st10 {fill:#ffffff;stroke:none;stroke-linecap:butt;stroke-width:7.2}
		.st11 {fill:#41719d;font-family:Calibri;font-size:1.00001em}
		.st12 {fill:#ff0000;font-family:Calibri;font-size:1.00001em}
		.st13 {stroke:#ffc000;stroke-dasharray:2.25,4.5;stroke-linecap:round;stroke-linejoin:round;stroke-width:2.25}
		.st14 {fill:#ffc000;font-family:Calibri;font-size:1.00001em}
		.st15 {stroke:#00b050;stroke-dasharray:2.25,4.5;stroke-linecap:round;stroke-linejoin:round;stroke-width:2.25}
		.st16 {fill:#00b050;font-family:Calibri;font-size:1.00001em}
		.st17 {fill:#73ae42;stroke:#ffffff;stroke-linecap:round;stroke-linejoin:round;stroke-width:0.5}
		.st18 {fill:#ffffff;font-family:Calibri;font-size:1.33333em;font-weight:bold}
		.st19 {fill:#1e4a73;font-family:Calibri;font-size:0.833336em}
		.st20 {fill:none;fill-rule:evenodd;font-size:12px;overflow:visible;stroke-linecap:square;stroke-miterlimit:3}
	]]>
	</style>

	<g v:mID="7" v:index="3" v:groupContext="foregroundPage">
		<v:userDefs>
			<v:ud v:nameU="msvThemeOrder" v:val="VT0(0):26"/>
		</v:userDefs>
		<title>WAN</title>
		<v:pageProperties v:drawingScale="0.0393701" v:pageScale="0.0393701" v:drawingUnits="24" v:shadowOffsetX="8.50394"
				v:shadowOffsetY="-8.50394"/>
		<v:layer v:name="Diagramme de flux" v:index="0"/>
		<v:layer v:name="Lien" v:index="1"/>
		<g id="group1-1" transform="translate(325.984,-333.071)" v:mID="1" v:groupContext="group">
			<v:custProps>
				<v:cp v:nameU="ShapeClass" v:lbl="ShapeClass" v:prompt="" v:type="0" v:format="" v:sortKey="" v:invis="true"
						v:ask="false" v:langID="1036" v:cal="0" v:val="VT4(Emplacement)"/>
				<v:cp v:nameU="ShapeType" v:lbl="ShapeType" v:prompt="" v:type="0" v:format="" v:sortKey="" v:invis="true"
						v:ask="false" v:langID="1036" v:cal="0" v:val="VT4(Nuage)"/>
			</v:custProps>
			<v:userDefs>
				<v:ud v:nameU="visVersion" v:prompt="" v:val="VT0(15):26"/>
				<v:ud v:nameU="ShapeClass" v:prompt="" v:val="VT0(5):26"/>
				<v:ud v:nameU="SolSH" v:prompt="" v:val="VT15({BF0433D9-CD73-4EB5-8390-8653BE590246}):41"/>
				<v:ud v:nameU="visLegendShape" v:prompt="" v:val="VT0(2):26"/>
			</v:userDefs>
			<title>Cloud</title>
			<desc>Internet</desc>
			<g id="shape2-2" v:mID="2" v:groupContext="shape" transform="translate(0,-15.1187)">
				<title>Feuille.2</title>
				<path d="M61.14 565.72 C60.76 562.37 57.72 559.75 53.98 559.75 C52.91 559.75 51.91 559.97 51.01 560.35 C49.25 557.06
							 45.6 554.65 38.77 554.84 C29.89 555.09 19.38 559.09 17.26 566.18 C14.73 566.67 13.1 568.04 12.13 569.87
							 C11.74 569.83 11.34 569.8 10.93 569.8 C5.08 569.8 0.59 574.07 0.33 579.32 C0 586.12 5.08 588.84 10.93
							 588.84 C11.76 588.84 12.57 588.75 13.35 588.58 C14.57 589.37 16.15 589.86 17.89 589.86 C19.49 589.86
							 20.97 589.44 22.14 588.75 C24.39 592.58 29.02 595.28 34.36 594.96 C39.97 594.63 43.34 593.44 45.33 591.59
							 C45.46 591.58 45.57 591.58 45.7 591.56 C51.98 590.76 54.74 589.13 55.63 586.45 C55.79 586.45 55.96 586.46
							 56.13 586.46 C64.27 586.46 70.87 584.08 70.87 575.75 C70.87 571.12 66.8 567.21 61.14 565.72 Z"
						class="st1"/>
			</g>
			<g id="shape1-4" v:mID="1" v:groupContext="groupContent">
				<v:textBlock v:margins="rect(4,4,4,4)" v:tabSpace="42.5197"/>
				<v:textRect cx="35.4331" cy="525.827" width="73.2" height="29.6036"/>
				<text x="4.87" y="531.23" class="st2" v:langID="1036"><v:paragraph v:horizAlign="1"/><v:tabList/>Internet</text>			</g>
		</g>
		<g id="group3-6" transform="translate(468.85,-333.071)" v:mID="3" v:groupContext="group">
			<v:custProps>
				<v:cp v:nameU="ShapeClass" v:lbl="ShapeClass" v:prompt="" v:type="0" v:format="" v:sortKey="" v:invis="true"
						v:ask="false" v:langID="1036" v:cal="0" v:val="VT4(Emplacement)"/>
				<v:cp v:nameU="ShapeType" v:lbl="ShapeType" v:prompt="" v:type="0" v:format="" v:sortKey="" v:invis="true"
						v:ask="false" v:langID="1036" v:cal="0" v:val="VT4(Nuage)"/>
			</v:custProps>
			<v:userDefs>
				<v:ud v:nameU="visVersion" v:prompt="" v:val="VT0(15):26"/>
				<v:ud v:nameU="ShapeClass" v:prompt="" v:val="VT0(5):26"/>
				<v:ud v:nameU="SolSH" v:prompt="" v:val="VT15({BF0433D9-CD73-4EB5-8390-8653BE590246}):41"/>
				<v:ud v:nameU="visLegendShape" v:prompt="" v:val="VT0(2):26"/>
			</v:userDefs>
			<title>Cloud.3</title>
			<desc>MPLS</desc>
			<g id="shape4-7" v:mID="4" v:groupContext="shape" transform="translate(0,-15.1187)">
				<title>Feuille.4</title>
				<path d="M61.14 565.72 C60.76 562.37 57.72 559.75 53.98 559.75 C52.91 559.75 51.91 559.97 51.01 560.35 C49.25 557.06
							 45.6 554.65 38.77 554.84 C29.89 555.09 19.38 559.09 17.26 566.18 C14.73 566.67 13.1 568.04 12.13 569.87
							 C11.74 569.83 11.34 569.8 10.93 569.8 C5.08 569.8 0.59 574.07 0.33 579.32 C0 586.12 5.08 588.84 10.93
							 588.84 C11.76 588.84 12.57 588.75 13.35 588.58 C14.57 589.37 16.15 589.86 17.89 589.86 C19.49 589.86
							 20.97 589.44 22.14 588.75 C24.39 592.58 29.02 595.28 34.36 594.96 C39.97 594.63 43.34 593.44 45.33 591.59
							 C45.46 591.58 45.57 591.58 45.7 591.56 C51.98 590.76 54.74 589.13 55.63 586.45 C55.79 586.45 55.96 586.46
							 56.13 586.46 C64.27 586.46 70.87 584.08 70.87 575.75 C70.87 571.12 66.8 567.21 61.14 565.72 Z"
						class="st1"/>
			</g>
			<g id="shape3-9" v:mID="3" v:groupContext="groupContent">
				<v:textBlock v:margins="rect(4,4,4,4)" v:tabSpace="42.5197"/>
				<v:textRect cx="35.4331" cy="525.827" width="53.51" height="29.6036"/>
				<text x="14.72" y="531.23" class="st2" v:langID="1036"><v:paragraph v:horizAlign="1"/><v:tabList/>MPLS</text>			</g>
		</g>
		<g id="group9-11" transform="translate(283.465,-77.9528)" v:mID="9" v:groupContext="group" v:layerMember="0">
			<v:userDefs>
				<v:ud v:nameU="visVersion" v:prompt="" v:val="VT0(15):26"/>
				<v:ud v:nameU="ConnGap" v:prompt="" v:val="VT0(0.00012908222537757):24"/>
			</v:userDefs>
			<title>Siège</title>
			<desc>Siège 1</desc>
			<g id="shape10-12" v:mID="10" v:groupContext="shape" v:layerMember="0" transform="translate(0,-1.08193)">
				<title>Feuille.10</title>
				<path d="M35.07 595.28 L35.07 573.64 L68.51 573.64 L68.51 595.28 L35.07 595.28 ZM0 585.13 L1.09 549.11 L21.21 549.11
							 L22.29 525.49 L59.27 525.7 L60.9 573.64 L35.12 573.64 L35.07 585.17 L0 585.13 Z" class="st3"/>
				<path d="M22.43 585.16 L21.21 549.11" class="st4"/>
				<path d="M35.07 595.28 L35.07 573.64 L68.51 573.64 L68.51 595.28 L35.07 595.28" class="st4"/>
				<path d="M0 585.13 L1.09 549.11 L21.21 549.11 L22.29 525.49 L59.27 525.7 L60.9 573.64 L35.12 573.64 L35.07 585.17
							 L0 585.13" class="st4"/>
			</g>
			<g id="shape11-17" v:mID="11" v:groupContext="shape" v:layerMember="0" transform="translate(5.73109,-12.2582)">
				<title>Feuille.11</title>
				<v:userDefs>
					<v:ud v:nameU="SurroundingRegionColor" v:prompt="" v:val="VT0(1):26"/>
					<v:ud v:nameU="SurroundingRegionColor" v:prompt="" v:val="VT5(#5b9bd5)"/>
				</v:userDefs>
				<path d="M40.51 595.28 L52.11 595.28 L52.11 593.4 L40.51 593.4 L40.51 595.28 ZM34.71 590.59 L57.91 590.59 L57.91
							 588.71 L34.71 588.71 L34.71 590.59 ZM47.36 553.52 L47.36 544.17 L40.14 544.17 L40.14 553.52 L47.36 553.52
							 ZM38.66 553.52 L38.66 544.17 L31.44 544.17 L31.44 553.52 L38.66 553.52 ZM29.96 553.52 L29.96 544.17
							 L22.74 544.17 L22.74 553.52 L29.96 553.52 ZM29.96 564.34 L29.96 554.99 L22.74 554.99 L22.74 564.34 L29.96
							 564.34 ZM29.96 575.16 L29.96 565.81 L22.74 565.81 L22.74 575.16 L29.96 575.16 ZM38.66 564.34 L38.66
							 554.99 L31.44 554.99 L31.44 564.34 L38.66 564.34 ZM38.66 575.16 L38.66 565.81 L31.44 565.81 L31.44 575.16
							 L38.66 575.16 ZM47.36 575.16 L47.36 565.81 L40.14 565.81 L40.14 575.16 L47.36 575.16 ZM47.36 564.34
							 L47.36 554.99 L40.14 554.99 L40.14 564.34 L47.36 564.34 ZM12.34 571.91 L12.34 565.45 L6.93 565.45 L6.93
							 571.91 L12.34 571.91 ZM5.42 571.91 L5.42 565.45 L0 565.45 L0 571.91 L5.42 571.91 ZM5.42 579.85 L5.42
							 573.38 L0 573.38 L0 579.85 L5.42 579.85 ZM12.34 579.85 L12.34 573.38 L6.93 573.38 L6.93 579.85 L12.34
							 579.85 ZM12.34 587.78 L12.34 581.32 L6.93 581.32 L6.93 587.78 L12.34 587.78 ZM5.42 587.78 L5.42 581.32
							 L0 581.32 L0 587.78 L5.42 587.78 Z" class="st5"/>
			</g>
			<g id="shape12-20" v:mID="12" v:groupContext="shape" v:layerMember="0" transform="translate(32.8104,0)">
				<title>Feuille.12</title>
				<path d="M27.91 595.28 L28.75 595.28 L38.06 595.28 A6.80645 5.07823 -90 0 0 28.33 592.86 A6.80645 5.07823 -90 0 0
							 19.03 592.86 A6.80645 5.07823 -90 0 0 9.72 592.86 A6.80645 5.07823 -90 0 0 0 595.28 L9.3 595.28 L10.15
							 595.28 L18.61 595.28 L19.45 595.28 L27.91 595.28 Z" class="st6"/>
			</g>
			<g id="shape9-22" v:mID="9" v:groupContext="groupContent" v:layerMember="0">
				<v:textBlock v:margins="rect(4,4,4,4)" v:tabSpace="42.5197"/>
				<v:textRect cx="35.4331" cy="606.477" width="45.37" height="22.4037"/>
				<text x="18.11" y="610.08" class="st7" v:langID="1036"><v:paragraph v:horizAlign="1"/><v:tabList/>Siège 1</text>			</g>
		</g>
		<g id="group13-24" transform="translate(113.386,-77.9528)" v:mID="13" v:groupContext="group">
			<v:custProps>
				<v:cp v:nameU="ShapeClass" v:lbl="ShapeClass" v:prompt="" v:type="0" v:format="" v:sortKey="" v:invis="true"
						v:ask="false" v:langID="1036" v:cal="0" v:val="VT4(Emplacement)"/>
				<v:cp v:nameU="ShapeType" v:lbl="ShapeType" v:prompt="" v:type="0" v:format="" v:sortKey="" v:invis="true"
						v:ask="false" v:langID="1036" v:cal="0" v:val="VT4(Bâtiment)"/>
			</v:custProps>
			<v:userDefs>
				<v:ud v:nameU="visVersion" v:prompt="" v:val="VT0(15):26"/>
				<v:ud v:nameU="ShapeClass" v:prompt="" v:val="VT0(5):26"/>
				<v:ud v:nameU="SolSH" v:prompt="" v:val="VT15({BF0433D9-CD73-4EB5-8390-8653BE590246}):41"/>
				<v:ud v:nameU="visLegendShape" v:prompt="" v:val="VT0(2):26"/>
			</v:userDefs>
			<title>Bâtiment</title>
			<desc>Bâtiment Administratif</desc>
			<g id="shape14-25" v:mID="14" v:groupContext="shape" transform="translate(35.4331,-62.6923)">
				<title>Feuille.14</title>
				<path d="M0 587.1 L0 595.28 L5.63 595.28" class="st4"/>
			</g>
			<g id="shape15-28" v:mID="15" v:groupContext="shape" transform="translate(16.9408,0)">
				<title>Feuille.15</title>
				<path d="M0 595.28 L36.98 595.28 L36.98 552.24 L0 552.24 L0 595.28 ZM36.98 552.24 L33.44 549.75 L3.91 549.79 L0 552.24
							 L36.98 552.24 ZM33.44 549.75 L33.44 539.17 L3.91 539.17 L3.91 549.79 L33.44 549.75 ZM13.25 536.16 L3.91
							 539.17 L33.44 539.17 L24.24 536.12 L24.12 536.12 L24.12 532.58 L13.25 532.58 L13.25 536.16 Z"
						class="st1"/>
			</g>
			<g id="shape16-30" v:mID="16" v:groupContext="shape" transform="translate(21.703,-2.29068)">
				<title>Feuille.16</title>
				<v:userDefs>
					<v:ud v:nameU="SurroundingRegionColor" v:prompt="" v:val="VT0(1):26"/>
					<v:ud v:nameU="SurroundingRegionColor" v:prompt="" v:val="VT5(#5b9bd5)"/>
				</v:userDefs>
				<path d="M-0 565.41 L6.99 565.41 L6.99 559.9 L-0 559.9 L-0 565.41 ZM10.23 565.41 L17.23 565.41 L17.23 559.9 L10.23
							 559.9 L10.23 565.41 ZM20.47 565.41 L27.46 565.41 L27.46 559.9 L20.47 559.9 L20.47 565.41 ZM-0 574.04
							 L6.99 574.04 L6.99 568.52 L-0 568.52 L-0 574.04 ZM10.23 574.04 L17.23 574.04 L17.23 568.52 L10.23 568.52
							 L10.23 574.04 ZM20.47 574.04 L27.46 574.04 L27.46 568.52 L20.47 568.52 L20.47 574.04 ZM-0 582.66 L6.99
							 582.66 L6.99 577.14 L-0 577.14 L-0 582.66 ZM10.23 582.66 L17.23 582.66 L17.23 577.14 L10.23 577.14 L10.23
							 582.66 ZM20.47 582.66 L27.46 582.66 L27.46 577.14 L20.47 577.14 L20.47 582.66 ZM8.57 595.28 L19.09 595.28
							 L19.09 585.77 L8.57 585.77 L8.57 595.28 ZM5.15 550.09 L12.14 550.09 L12.14 544.57 L5.15 544.57 L5.15
							 550.09 ZM16.08 550.09 L23.08 550.09 L23.08 544.57 L16.08 544.57 L16.08 550.09 Z" class="st5"/>
			</g>
			<g id="shape13-33" v:mID="13" v:groupContext="groupContent">
				<v:textBlock v:margins="rect(4,4,4,4)" v:tabSpace="42.5197"/>
				<v:textRect cx="35.4331" cy="606.477" width="122.09" height="22.4037"/>
				<text x="-20.25" y="610.08" class="st7" v:langID="1036"><v:paragraph v:horizAlign="1"/><v:tabList/>Bâtiment Administratif</text>			</g>
		</g>
		<g id="group17-35" transform="translate(496.063,-77.9528)" v:mID="17" v:groupContext="group" v:layerMember="0">
			<v:userDefs>
				<v:ud v:nameU="visVersion" v:prompt="" v:val="VT0(15):26"/>
				<v:ud v:nameU="ConnGap" v:prompt="" v:val="VT0(0.00012908222537757):24"/>
			</v:userDefs>
			<title>Siège.17</title>
			<desc>Siège 2</desc>
			<g id="shape18-36" v:mID="18" v:groupContext="shape" v:layerMember="0" transform="translate(0,-1.08193)">
				<title>Feuille.18</title>
				<path d="M35.07 595.28 L35.07 573.64 L68.51 573.64 L68.51 595.28 L35.07 595.28 ZM0 585.13 L1.09 549.11 L21.21 549.11
							 L22.29 525.49 L59.27 525.7 L60.9 573.64 L35.12 573.64 L35.07 585.17 L0 585.13 Z" class="st3"/>
				<path d="M22.43 585.16 L21.21 549.11" class="st4"/>
				<path d="M35.07 595.28 L35.07 573.64 L68.51 573.64 L68.51 595.28 L35.07 595.28" class="st4"/>
				<path d="M0 585.13 L1.09 549.11 L21.21 549.11 L22.29 525.49 L59.27 525.7 L60.9 573.64 L35.12 573.64 L35.07 585.17
							 L0 585.13" class="st4"/>
			</g>
			<g id="shape19-41" v:mID="19" v:groupContext="shape" v:layerMember="0" transform="translate(5.73109,-12.2582)">
				<title>Feuille.19</title>
				<v:userDefs>
					<v:ud v:nameU="SurroundingRegionColor" v:prompt="" v:val="VT0(1):26"/>
					<v:ud v:nameU="SurroundingRegionColor" v:prompt="" v:val="VT5(#5b9bd5)"/>
				</v:userDefs>
				<path d="M40.51 595.28 L52.11 595.28 L52.11 593.4 L40.51 593.4 L40.51 595.28 ZM34.71 590.59 L57.91 590.59 L57.91
							 588.71 L34.71 588.71 L34.71 590.59 ZM47.36 553.52 L47.36 544.17 L40.14 544.17 L40.14 553.52 L47.36 553.52
							 ZM38.66 553.52 L38.66 544.17 L31.44 544.17 L31.44 553.52 L38.66 553.52 ZM29.96 553.52 L29.96 544.17
							 L22.74 544.17 L22.74 553.52 L29.96 553.52 ZM29.96 564.34 L29.96 554.99 L22.74 554.99 L22.74 564.34 L29.96
							 564.34 ZM29.96 575.16 L29.96 565.81 L22.74 565.81 L22.74 575.16 L29.96 575.16 ZM38.66 564.34 L38.66
							 554.99 L31.44 554.99 L31.44 564.34 L38.66 564.34 ZM38.66 575.16 L38.66 565.81 L31.44 565.81 L31.44 575.16
							 L38.66 575.16 ZM47.36 575.16 L47.36 565.81 L40.14 565.81 L40.14 575.16 L47.36 575.16 ZM47.36 564.34
							 L47.36 554.99 L40.14 554.99 L40.14 564.34 L47.36 564.34 ZM12.34 571.91 L12.34 565.45 L6.93 565.45 L6.93
							 571.91 L12.34 571.91 ZM5.42 571.91 L5.42 565.45 L0 565.45 L0 571.91 L5.42 571.91 ZM5.42 579.85 L5.42
							 573.38 L0 573.38 L0 579.85 L5.42 579.85 ZM12.34 579.85 L12.34 573.38 L6.93 573.38 L6.93 579.85 L12.34
							 579.85 ZM12.34 587.78 L12.34 581.32 L6.93 581.32 L6.93 587.78 L12.34 587.78 ZM5.42 587.78 L5.42 581.32
							 L0 581.32 L0 587.78 L5.42 587.78 Z" class="st5"/>
			</g>
			<g id="shape20-44" v:mID="20" v:groupContext="shape" v:layerMember="0" transform="translate(32.8104,0)">
				<title>Feuille.20</title>
				<path d="M27.91 595.28 L28.75 595.28 L38.06 595.28 A6.80645 5.07823 -90 0 0 28.33 592.86 A6.80645 5.07823 -90 0 0
							 19.03 592.86 A6.80645 5.07823 -90 0 0 9.72 592.86 A6.80645 5.07823 -90 0 0 0 595.28 L9.3 595.28 L10.15
							 595.28 L18.61 595.28 L19.45 595.28 L27.91 595.28 Z" class="st6"/>
			</g>
			<g id="shape17-46" v:mID="17" v:groupContext="groupContent" v:layerMember="0">
				<v:textBlock v:margins="rect(4,4,4,4)" v:tabSpace="42.5197"/>
				<v:textRect cx="35.4331" cy="606.477" width="45.37" height="22.4037"/>
				<text x="18.11" y="610.08" class="st7" v:langID="1036"><v:paragraph v:horizAlign="1"/><v:tabList/>Siège 2</text>			</g>
		</g>
		<g id="group21-48" transform="translate(113.386,-248.031)" v:mID="21" v:groupContext="group">
			<v:custProps>
				<v:cp v:nameU="ShapeClass" v:lbl="ShapeClass" v:prompt="" v:type="0" v:format="" v:sortKey="" v:invis="true"
						v:ask="false" v:langID="1036" v:cal="0" v:val="VT4(Emplacement)"/>
				<v:cp v:nameU="ShapeType" v:lbl="ShapeType" v:prompt="" v:type="0" v:format="" v:sortKey="" v:invis="true"
						v:ask="false" v:langID="1036" v:cal="0" v:val="VT4(Bâtiment)"/>
			</v:custProps>
			<v:userDefs>
				<v:ud v:nameU="visVersion" v:prompt="" v:val="VT0(15):26"/>
				<v:ud v:nameU="ShapeClass" v:prompt="" v:val="VT0(5):26"/>
				<v:ud v:nameU="SolSH" v:prompt="" v:val="VT15({BF0433D9-CD73-4EB5-8390-8653BE590246}):41"/>
				<v:ud v:nameU="visLegendShape" v:prompt="" v:val="VT0(2):26"/>
			</v:userDefs>
			<title>Bâtiment.21</title>
			<desc>Bâtiment Administratif</desc>
			<g id="shape22-49" v:mID="22" v:groupContext="shape" transform="translate(35.4331,-62.6923)">
				<title>Feuille.22</title>
				<path d="M0 587.1 L0 595.28 L5.63 595.28" class="st4"/>
			</g>
			<g id="shape23-52" v:mID="23" v:groupContext="shape" transform="translate(16.9408,0)">
				<title>Feuille.23</title>
				<path d="M0 595.28 L36.98 595.28 L36.98 552.24 L0 552.24 L0 595.28 ZM36.98 552.24 L33.44 549.75 L3.91 549.79 L0 552.24
							 L36.98 552.24 ZM33.44 549.75 L33.44 539.17 L3.91 539.17 L3.91 549.79 L33.44 549.75 ZM13.25 536.16 L3.91
							 539.17 L33.44 539.17 L24.24 536.12 L24.12 536.12 L24.12 532.58 L13.25 532.58 L13.25 536.16 Z"
						class="st1"/>
			</g>
			<g id="shape24-54" v:mID="24" v:groupContext="shape" transform="translate(21.703,-2.29068)">
				<title>Feuille.24</title>
				<v:userDefs>
					<v:ud v:nameU="SurroundingRegionColor" v:prompt="" v:val="VT0(1):26"/>
					<v:ud v:nameU="SurroundingRegionColor" v:prompt="" v:val="VT5(#5b9bd5)"/>
				</v:userDefs>
				<path d="M-0 565.41 L6.99 565.41 L6.99 559.9 L-0 559.9 L-0 565.41 ZM10.23 565.41 L17.23 565.41 L17.23 559.9 L10.23
							 559.9 L10.23 565.41 ZM20.47 565.41 L27.46 565.41 L27.46 559.9 L20.47 559.9 L20.47 565.41 ZM-0 574.04
							 L6.99 574.04 L6.99 568.52 L-0 568.52 L-0 574.04 ZM10.23 574.04 L17.23 574.04 L17.23 568.52 L10.23 568.52
							 L10.23 574.04 ZM20.47 574.04 L27.46 574.04 L27.46 568.52 L20.47 568.52 L20.47 574.04 ZM-0 582.66 L6.99
							 582.66 L6.99 577.14 L-0 577.14 L-0 582.66 ZM10.23 582.66 L17.23 582.66 L17.23 577.14 L10.23 577.14 L10.23
							 582.66 ZM20.47 582.66 L27.46 582.66 L27.46 577.14 L20.47 577.14 L20.47 582.66 ZM8.57 595.28 L19.09 595.28
							 L19.09 585.77 L8.57 585.77 L8.57 595.28 ZM5.15 550.09 L12.14 550.09 L12.14 544.57 L5.15 544.57 L5.15
							 550.09 ZM16.08 550.09 L23.08 550.09 L23.08 544.57 L16.08 544.57 L16.08 550.09 Z" class="st5"/>
			</g>
			<g id="shape21-57" v:mID="21" v:groupContext="groupContent">
				<v:textBlock v:margins="rect(4,4,4,4)" v:tabSpace="42.5197"/>
				<v:textRect cx="35.4331" cy="606.477" width="122.09" height="22.4037"/>
				<text x="-20.25" y="610.08" class="st7" v:langID="1036"><v:paragraph v:horizAlign="1"/><v:tabList/>Bâtiment Administratif</text>			</g>
		</g>
		<g id="group25-59" transform="translate(680.315,-248.031)" v:mID="25" v:groupContext="group">
			<v:custProps>
				<v:cp v:nameU="ShapeClass" v:lbl="ShapeClass" v:prompt="" v:type="0" v:format="" v:sortKey="" v:invis="true"
						v:ask="false" v:langID="1036" v:cal="0" v:val="VT4(Emplacement)"/>
				<v:cp v:nameU="ShapeType" v:lbl="ShapeType" v:prompt="" v:type="0" v:format="" v:sortKey="" v:invis="true"
						v:ask="false" v:langID="1036" v:cal="0" v:val="VT4(Bâtiment)"/>
			</v:custProps>
			<v:userDefs>
				<v:ud v:nameU="visVersion" v:prompt="" v:val="VT0(15):26"/>
				<v:ud v:nameU="ShapeClass" v:prompt="" v:val="VT0(5):26"/>
				<v:ud v:nameU="SolSH" v:prompt="" v:val="VT15({BF0433D9-CD73-4EB5-8390-8653BE590246}):41"/>
				<v:ud v:nameU="visLegendShape" v:prompt="" v:val="VT0(2):26"/>
			</v:userDefs>
			<title>Bâtiment.25</title>
			<desc>Bâtiment Industriel</desc>
			<g id="shape26-60" v:mID="26" v:groupContext="shape" transform="translate(35.4331,-62.6923)">
				<title>Feuille.26</title>
				<path d="M0 587.1 L0 595.28 L5.63 595.28" class="st4"/>
			</g>
			<g id="shape27-63" v:mID="27" v:groupContext="shape" transform="translate(16.9408,0)">
				<title>Feuille.27</title>
				<path d="M0 595.28 L36.98 595.28 L36.98 552.24 L0 552.24 L0 595.28 ZM36.98 552.24 L33.44 549.75 L3.91 549.79 L0 552.24
							 L36.98 552.24 ZM33.44 549.75 L33.44 539.17 L3.91 539.17 L3.91 549.79 L33.44 549.75 ZM13.25 536.16 L3.91
							 539.17 L33.44 539.17 L24.24 536.12 L24.12 536.12 L24.12 532.58 L13.25 532.58 L13.25 536.16 Z"
						class="st1"/>
			</g>
			<g id="shape28-65" v:mID="28" v:groupContext="shape" transform="translate(21.703,-2.29068)">
				<title>Feuille.28</title>
				<v:userDefs>
					<v:ud v:nameU="SurroundingRegionColor" v:prompt="" v:val="VT0(1):26"/>
					<v:ud v:nameU="SurroundingRegionColor" v:prompt="" v:val="VT5(#5b9bd5)"/>
				</v:userDefs>
				<path d="M-0 565.41 L6.99 565.41 L6.99 559.9 L-0 559.9 L-0 565.41 ZM10.23 565.41 L17.23 565.41 L17.23 559.9 L10.23
							 559.9 L10.23 565.41 ZM20.47 565.41 L27.46 565.41 L27.46 559.9 L20.47 559.9 L20.47 565.41 ZM-0 574.04
							 L6.99 574.04 L6.99 568.52 L-0 568.52 L-0 574.04 ZM10.23 574.04 L17.23 574.04 L17.23 568.52 L10.23 568.52
							 L10.23 574.04 ZM20.47 574.04 L27.46 574.04 L27.46 568.52 L20.47 568.52 L20.47 574.04 ZM-0 582.66 L6.99
							 582.66 L6.99 577.14 L-0 577.14 L-0 582.66 ZM10.23 582.66 L17.23 582.66 L17.23 577.14 L10.23 577.14 L10.23
							 582.66 ZM20.47 582.66 L27.46 582.66 L27.46 577.14 L20.47 577.14 L20.47 582.66 ZM8.57 595.28 L19.09 595.28
							 L19.09 585.77 L8.57 585.77 L8.57 595.28 ZM5.15 550.09 L12.14 550.09 L12.14 544.57 L5.15 544.57 L5.15
							 550.09 ZM16.08 550.09 L23.08 550.09 L23.08 544.57 L16.08 544.57 L16.08 550.09 Z" class="st5"/>
			</g>
			<g id="shape25-68" v:mID="25" v:groupContext="groupContent">
				<v:textBlock v:margins="rect(4,4,4,4)" v:tabSpace="42.5197"/>
				<v:textRect cx="35.4331" cy="606.477" width="104.68" height="22.4037"/>
				<text x="-11.55" y="610.08" class="st7" v:langID="1036"><v:paragraph v:horizAlign="1"/><v:tabList/>Bâtiment Industriel</text>			</g>
		</g>
		<g id="group29-70" transform="translate(680.315,-77.9528)" v:mID="29" v:groupContext="group">
			<v:custProps>
				<v:cp v:nameU="ShapeClass" v:lbl="ShapeClass" v:prompt="" v:type="0" v:format="" v:sortKey="" v:invis="true"
						v:ask="false" v:langID="1036" v:cal="0" v:val="VT4(Emplacement)"/>
				<v:cp v:nameU="ShapeType" v:lbl="ShapeType" v:prompt="" v:type="0" v:format="" v:sortKey="" v:invis="true"
						v:ask="false" v:langID="1036" v:cal="0" v:val="VT4(Bâtiment)"/>
			</v:custProps>
			<v:userDefs>
				<v:ud v:nameU="visVersion" v:prompt="" v:val="VT0(15):26"/>
				<v:ud v:nameU="ShapeClass" v:prompt="" v:val="VT0(5):26"/>
				<v:ud v:nameU="SolSH" v:prompt="" v:val="VT15({BF0433D9-CD73-4EB5-8390-8653BE590246}):41"/>
				<v:ud v:nameU="visLegendShape" v:prompt="" v:val="VT0(2):26"/>
			</v:userDefs>
			<title>Bâtiment.29</title>
			<desc>Bâtiment Industriel</desc>
			<g id="shape30-71" v:mID="30" v:groupContext="shape" transform="translate(35.4331,-62.6923)">
				<title>Feuille.30</title>
				<path d="M0 587.1 L0 595.28 L5.63 595.28" class="st4"/>
			</g>
			<g id="shape31-74" v:mID="31" v:groupContext="shape" transform="translate(16.9408,0)">
				<title>Feuille.31</title>
				<path d="M0 595.28 L36.98 595.28 L36.98 552.24 L0 552.24 L0 595.28 ZM36.98 552.24 L33.44 549.75 L3.91 549.79 L0 552.24
							 L36.98 552.24 ZM33.44 549.75 L33.44 539.17 L3.91 539.17 L3.91 549.79 L33.44 549.75 ZM13.25 536.16 L3.91
							 539.17 L33.44 539.17 L24.24 536.12 L24.12 536.12 L24.12 532.58 L13.25 532.58 L13.25 536.16 Z"
						class="st1"/>
			</g>
			<g id="shape32-76" v:mID="32" v:groupContext="shape" transform="translate(21.703,-2.29068)">
				<title>Feuille.32</title>
				<v:userDefs>
					<v:ud v:nameU="SurroundingRegionColor" v:prompt="" v:val="VT0(1):26"/>
					<v:ud v:nameU="SurroundingRegionColor" v:prompt="" v:val="VT5(#5b9bd5)"/>
				</v:userDefs>
				<path d="M-0 565.41 L6.99 565.41 L6.99 559.9 L-0 559.9 L-0 565.41 ZM10.23 565.41 L17.23 565.41 L17.23 559.9 L10.23
							 559.9 L10.23 565.41 ZM20.47 565.41 L27.46 565.41 L27.46 559.9 L20.47 559.9 L20.47 565.41 ZM-0 574.04
							 L6.99 574.04 L6.99 568.52 L-0 568.52 L-0 574.04 ZM10.23 574.04 L17.23 574.04 L17.23 568.52 L10.23 568.52
							 L10.23 574.04 ZM20.47 574.04 L27.46 574.04 L27.46 568.52 L20.47 568.52 L20.47 574.04 ZM-0 582.66 L6.99
							 582.66 L6.99 577.14 L-0 577.14 L-0 582.66 ZM10.23 582.66 L17.23 582.66 L17.23 577.14 L10.23 577.14 L10.23
							 582.66 ZM20.47 582.66 L27.46 582.66 L27.46 577.14 L20.47 577.14 L20.47 582.66 ZM8.57 595.28 L19.09 595.28
							 L19.09 585.77 L8.57 585.77 L8.57 595.28 ZM5.15 550.09 L12.14 550.09 L12.14 544.57 L5.15 544.57 L5.15
							 550.09 ZM16.08 550.09 L23.08 550.09 L23.08 544.57 L16.08 544.57 L16.08 550.09 Z" class="st5"/>
			</g>
			<g id="shape29-79" v:mID="29" v:groupContext="groupContent">
				<v:textBlock v:margins="rect(4,4,4,4)" v:tabSpace="42.5197"/>
				<v:textRect cx="35.4331" cy="606.477" width="104.68" height="22.4037"/>
				<text x="-11.55" y="610.08" class="st7" v:langID="1036"><v:paragraph v:horizAlign="1"/><v:tabList/>Bâtiment Industriel</text>			</g>
		</g>
		<g id="shape33-81" v:mID="33" v:groupContext="shape" v:layerMember="1" transform="translate(163.769,-131.326)">
			<title>Lien dynamique</title>
			<path d="M0 595.28 L185.16 373.08" class="st8"/>
		</g>
		<g id="shape34-84" v:mID="34" v:groupContext="shape" v:layerMember="1" transform="translate(167.311,-290.861)">
			<title>Lien dynamique.34</title>
			<path d="M0 595.28 L163.1 530.04" class="st8"/>
		</g>
		<g id="shape35-87" v:mID="35" v:groupContext="shape" v:layerMember="1" transform="translate(697.256,-287.903)">
			<title>Lien dynamique.35</title>
			<path d="M0 595.28 L-155.2 558.03 A2.3622 2.3622 -180 0 0 -159.79 556.93 L-186.92 550.41 A2.3622 2.3622 -180 0 0 -191.52
						 549.31 L-211.89 544.42 A2.3622 2.3622 -180 0 0 -216.49 543.32 L-302.97 522.56" class="st8"/>
		</g>
		<g id="shape36-90" v:mID="36" v:groupContext="shape" v:layerMember="1" transform="translate(701.17,-123.882)">
			<title>Lien dynamique.36</title>
			<path d="M0 595.28 L-183.08 463.45 A2.3622 2.3622 -180 0 0 -186.92 460.69 L-244.04 419.57 A2.3622 2.3622 -180 1 0 -247.88
						 416.8 L-320.88 364.25" class="st8"/>
		</g>
		<g id="shape37-93" v:mID="37" v:groupContext="shape" v:layerMember="1" transform="translate(701.17,-130.974)">
			<title>Lien dynamique.37</title>
			<path d="M0 595.28 L-183.56 373.83" class="st9"/>
		</g>
		<g id="shape38-96" v:mID="38" v:groupContext="shape" v:layerMember="1" transform="translate(697.256,-290.901)">
			<title>Lien dynamique.38</title>
			<path d="M0 595.28 L-165.95 528.54" class="st9"/>
		</g>
		<g id="shape39-99" v:mID="39" v:groupContext="shape" v:layerMember="1" transform="translate(324.785,-148.712)">
			<title>Lien dynamique.39</title>
			<path d="M0 595.28 L33.31 395.44" class="st8"/>
		</g>
		<g id="shape40-102" v:mID="40" v:groupContext="shape" v:layerMember="1" transform="translate(342.812,-146.295)">
			<title>Lien dynamique.40</title>
			<path d="M0 595.28 L57.78 515.76 A2.3622 2.3622 0 1 1 60.56 511.94 L85.57 477.51 A2.3622 2.3622 0 1 1 88.35 473.69 L149.85
						 389.05" class="st9"/>
		</g>
		<g id="shape41-105" v:mID="41" v:groupContext="shape" v:layerMember="1" transform="translate(517.68,-134.111)">
			<title>Lien dynamique.41</title>
			<path d="M0 595.28 L-145.26 377.38" class="st8"/>
		</g>
		<g id="shape42-108" v:mID="42" v:groupContext="shape" v:layerMember="1" transform="translate(527.722,-148.766)">
			<title>Lien dynamique.42</title>
			<path d="M0 595.28 L-21.34 395.23" class="st9"/>
		</g>
		<g id="shape43-111" v:mID="43" v:groupContext="shape" v:layerMember="1" transform="translate(637.795,-452.126)">
			<title>Lien dynamique.43</title>
			<desc>Accès Internet</desc>
			<v:textBlock v:margins="rect(4,4,4,4)" v:tabSpace="42.5197"/>
			<v:textRect cx="45.3543" cy="588.189" width="80.99" height="22.4037"/>
			<path d="M0 588.19 L90.71 588.19" class="st8"/>
			<rect v:rectContext="textBkgnd" x="10.2213" y="580.989" width="70.2664" height="14.4001" class="st10"/>
			<text x="10.22" y="591.79" class="st11" v:langID="1036"><v:paragraph v:horizAlign="1"/><v:tabList/>Accès Internet</text>		</g>
		<g id="shape44-116" v:mID="44" v:groupContext="shape" v:layerMember="1" transform="translate(637.795,-423.78)">
			<title>Lien dynamique.44</title>
			<desc>MPLS</desc>
			<v:textBlock v:margins="rect(4,4,4,4)" v:tabSpace="42.5197"/>
			<v:textRect cx="45.3543" cy="588.189" width="60.01" height="22.4037"/>
			<path d="M0 588.19 L90.71 588.19" class="st9"/>
			<rect v:rectContext="textBkgnd" x="31.8454" y="580.989" width="27.0179" height="14.4001" class="st10"/>
			<text x="31.85" y="591.79" class="st12" v:langID="1036"><v:paragraph v:horizAlign="1"/><v:tabList/>MPLS</text>		</g>
		<g id="shape45-121" v:mID="45" v:groupContext="shape" v:layerMember="1" transform="translate(343.932,-106.299)">
			<title>Lien dynamique.45</title>
			<path d="M0 588.19 L152.86 588.19" class="st13"/>
		</g>
		<g id="shape46-124" v:mID="46" v:groupContext="shape" v:layerMember="1" transform="translate(637.795,-401.102)">
			<title>Lien dynamique.46</title>
			<desc>VPN IPsec</desc>
			<v:textBlock v:margins="rect(4,4,4,4)" v:tabSpace="42.5197"/>
			<v:textRect cx="45.3543" cy="588.189" width="60.01" height="22.4037"/>
			<path d="M0 588.19 L90.71 588.19" class="st13"/>
			<rect v:rectContext="textBkgnd" x="21.1403" y="580.989" width="48.4283" height="14.4001" class="st10"/>
			<text x="21.14" y="591.79" class="st14" v:langID="1036"><v:paragraph v:horizAlign="1"/><v:tabList/>VPN IPsec</text>		</g>
		<g id="shape49-129" v:mID="49" v:groupContext="shape" v:layerMember="1" transform="translate(637.795,-378.425)">
			<title>Lien dynamique.49</title>
			<desc>VPN SSL</desc>
			<v:textBlock v:margins="rect(4,4,4,4)" v:tabSpace="42.5197"/>
			<v:textRect cx="45.3543" cy="588.189" width="60.01" height="22.4037"/>
			<path d="M0 588.19 L90.71 588.19" class="st15"/>
			<rect v:rectContext="textBkgnd" x="25.5845" y="580.989" width="39.5395" height="14.4001" class="st10"/>
			<text x="25.58" y="591.79" class="st16" v:langID="1036"><v:paragraph v:horizAlign="1"/><v:tabList/>VPN SSL</text>		</g>
		<g id="shape50-134" v:mID="50" v:groupContext="shape" v:layerMember="1" transform="translate(167.311,-264.972)">
			<title>Lien dynamique.50</title>
			<path d="M0 595.28 L57.15 652.42 A2.3622 2.3622 0 0 1 60.49 655.76 L137.47 732.74" class="st13"/>
		</g>
		<g id="shape51-137" v:mID="51" v:groupContext="shape" v:layerMember="1" transform="translate(167.311,-106.299)">
			<title>Lien dynamique.51</title>
			<path d="M0 588.19 L116.88 588.19" class="st13"/>
		</g>
		<g id="shape52-140" v:mID="52" v:groupContext="shape" transform="translate(231.024,-446.457)">
			<title>Feuille.52</title>
			<desc>WAN</desc>
			<v:textBlock v:margins="rect(4,4,4,4)" v:tabSpace="42.5197"/>
			<v:textRect cx="189.213" cy="574.016" width="378.43" height="42.5197"/>
			<rect x="0" y="552.756" width="378.425" height="42.5197" class="st17"/>
			<text x="171.85" y="578.82" class="st18" v:langID="1036"><v:paragraph v:horizAlign="1"/><v:tabList/>WAN</text>		</g>
		<g id="group53-143" transform="translate(396.85,-134.646)" v:mID="53" v:groupContext="group">
			<v:custProps>
				<v:cp v:nameU="AssetNumber" v:lbl="Numéro d’inventaire" v:prompt="" v:type="0" v:format="" v:sortKey="Asset"
						v:invis="false" v:ask="false" v:langID="1036" v:cal="0"/>
				<v:cp v:nameU="SerialNumber" v:lbl="Numéro de série" v:prompt="" v:type="0" v:format="" v:sortKey="Asset"
						v:invis="false" v:ask="false" v:langID="1036" v:cal="0"/>
				<v:cp v:nameU="Location" v:lbl="Emplacement" v:prompt="" v:type="0" v:format="" v:sortKey="Asset" v:invis="false"
						v:ask="false" v:langID="1036" v:cal="0"/>
				<v:cp v:nameU="Building" v:lbl="Bâtiment" v:prompt="" v:type="0" v:format="" v:sortKey="Asset" v:invis="false"
						v:ask="false" v:langID="1036" v:cal="0"/>
				<v:cp v:nameU="Room" v:lbl="Salle" v:prompt="" v:type="0" v:format="" v:sortKey="Asset" v:invis="false"
						v:ask="false" v:langID="1036" v:cal="0"/>
				<v:cp v:nameU="Manufacturer" v:lbl="Fabricant" v:prompt="" v:type="0" v:format="" v:sortKey="Equipment"
						v:invis="false" v:ask="false" v:langID="1036" v:cal="0"/>
				<v:cp v:nameU="ProductNumber" v:lbl="Numéro de produit" v:prompt="" v:type="0" v:format="" v:sortKey="Equipment"
						v:invis="false" v:ask="false" v:langID="1036" v:cal="0"/>
				<v:cp v:nameU="PartNumber" v:lbl="Numéro de référence" v:prompt="" v:type="0" v:format="" v:sortKey="Equipment"
						v:invis="false" v:ask="false" v:langID="1036" v:cal="0"/>
				<v:cp v:nameU="ProductDescription" v:lbl="Description du produit" v:prompt="" v:type="0" v:format=""
						v:sortKey="Equipment" v:invis="false" v:ask="false" v:langID="1036" v:cal="0"/>
				<v:cp v:nameU="NetworkName" v:lbl="Nom de réseau" v:prompt="" v:type="0" v:format="" v:sortKey="Network"
						v:invis="false" v:ask="false" v:langID="1036" v:cal="0"/>
				<v:cp v:nameU="IPAddress" v:lbl="Adresse IP" v:prompt="" v:type="0" v:format="" v:sortKey="Network" v:invis="false"
						v:ask="false" v:langID="1036" v:cal="0"/>
				<v:cp v:nameU="SubnetMask" v:lbl="Masque de sous-réseau" v:prompt="" v:type="0" v:format="" v:sortKey="Network"
						v:invis="false" v:ask="false" v:langID="1036" v:cal="0"/>
				<v:cp v:nameU="AdminInterface" v:lbl="Interface d’administration" v:prompt="" v:type="0" v:format=""
						v:sortKey="Network" v:invis="false" v:ask="false" v:langID="1036" v:cal="0"/>
				<v:cp v:nameU="NumberofPorts" v:lbl="Nombre de ports" v:prompt="" v:type="0" v:format="" v:sortKey="Network"
						v:invis="false" v:ask="false" v:langID="1036" v:cal="0"/>
				<v:cp v:nameU="CommunityString" v:lbl="Chaîne de communauté" v:prompt="" v:type="0" v:format="" v:sortKey="Network"
						v:invis="false" v:ask="false" v:langID="1036" v:cal="0"/>
				<v:cp v:nameU="NetworkDescription" v:lbl="Description de réseau" v:prompt="" v:type="0" v:format=""
						v:sortKey="Network" v:invis="false" v:ask="false" v:langID="1036" v:cal="0"/>
				<v:cp v:nameU="MACAddress" v:lbl="Adresse MAC" v:prompt="" v:type="0" v:format="" v:sortKey="Network"
						v:invis="false" v:ask="false" v:langID="1036" v:cal="0"/>
				<v:cp v:nameU="CPU" v:lbl="UC" v:prompt="" v:type="0" v:format="" v:sortKey="Workstation" v:invis="false"
						v:ask="false" v:langID="1036" v:cal="0"/>
				<v:cp v:nameU="Memory" v:lbl="Mémoire" v:prompt="" v:type="0" v:format="" v:sortKey="Workstation" v:invis="false"
						v:ask="false" v:langID="1036" v:cal="0"/>
				<v:cp v:nameU="OperatingSystem" v:lbl="Système d’exploitation" v:prompt="" v:type="0" v:format=""
						v:sortKey="Workstation" v:invis="false" v:ask="false" v:langID="1036" v:cal="0"/>
				<v:cp v:nameU="HardDriveSize" v:lbl="Capacité du disque dur" v:prompt="" v:type="0" v:format=""
						v:sortKey="Workstation" v:invis="false" v:ask="false" v:langID="1036" v:cal="0"/>
				<v:cp v:nameU="Department" v:lbl="Service" v:prompt="" v:type="0" v:format="" v:sortKey="" v:invis="false"
						v:ask="false" v:langID="1036" v:cal="0"/>
				<v:cp v:nameU="ShapeClass" v:lbl="ShapeClass" v:prompt="" v:type="0" v:format="" v:sortKey="" v:invis="true"
						v:ask="false" v:langID="1036" v:cal="0" v:val="VT4(Équipement)"/>
				<v:cp v:nameU="ShapeType" v:lbl="ShapeType" v:prompt="" v:type="0" v:format="" v:sortKey="" v:invis="true"
						v:ask="false" v:langID="1036" v:cal="0" v:val="VT4(Ordinateur)"/>
				<v:cp v:nameU="SubShapeType" v:lbl="SubShapeType" v:prompt="" v:type="0" v:format="" v:sortKey="" v:invis="true"
						v:ask="false" v:langID="1036" v:cal="0" v:val="VT4(Bureau)"/>
				<v:cp v:nameU="BelongsTo" v:lbl="Propriétaire" v:prompt="" v:type="0" v:format="" v:sortKey="" v:invis="true"
						v:ask="false" v:langID="1036" v:cal="0"/>
			</v:custProps>
			<v:userDefs>
				<v:ud v:nameU="visVersion" v:prompt="" v:val="VT0(15):26"/>
				<v:ud v:nameU="ShapeClass" v:prompt="" v:val="VT0(5):26"/>
				<v:ud v:nameU="SolSH" v:prompt="" v:val="VT15({BF0433D9-CD73-4EB5-8390-8653BE590246}):41"/>
				<v:ud v:nameU="visLegendShape" v:prompt="" v:val="VT0(2):26"/>
			</v:userDefs>
			<title>PC.40</title>
			<desc>Télétravailleur</desc>
			<g id="shape54-144" v:mID="54" v:groupContext="shape" transform="translate(0,-3.30832)">
				<title>Feuille.54</title>
				<path d="M33.6 583.09 L33.6 587.28 L36.14 587.28 L38.53 590.28 L49.61 590.28 L49.61 552.29 L33.6 552.29 L33.6 557.74
							 L40.47 557.74 L40.47 583.09 L33.6 583.09 ZM40.47 557.74 L2.47 557.74 L2.47 583.09 L40.47 583.09 L40.47
							 557.74 ZM42.51 595.28 L36.14 587.28 L6.38 587.28 L0 595.28 L42.51 595.28 ZM24.6 583.09 L17.92 583.09
							 L17.92 587.28 L24.6 587.28 L24.6 583.09 Z" class="st1"/>
			</g>
			<g id="shape55-146" v:mID="55" v:groupContext="shape" transform="translate(4.93698,-17.7751)">
				<title>Feuille.55</title>
				<v:userDefs>
					<v:ud v:nameU="SurroundingRegionColor" v:prompt="" v:val="VT0(1):26"/>
					<v:ud v:nameU="SurroundingRegionColor" v:prompt="" v:val="VT5(#5b9bd5)"/>
				</v:userDefs>
				<path d="M33.12 574.72 L0 574.72 L0 595.28 L33.12 595.28 L33.12 574.72 Z" class="st6"/>
			</g>
			<g id="shape56-148" v:mID="56" v:groupContext="shape" transform="translate(5.78569,-4.95855)">
				<title>Feuille.56</title>
				<v:userDefs>
					<v:ud v:nameU="SurroundingRegionColor" v:prompt="" v:val="VT0(1):26"/>
					<v:ud v:nameU="SurroundingRegionColor" v:prompt="" v:val="VT5(#5b9bd5)"/>
				</v:userDefs>
				<path d="M37.41 558.19 L40.84 558.19 L40.84 556.86 L37.41 556.86 L37.41 558.19 ZM37.41 560.57 L40.84 560.57 L40.84
							 559.24 L37.41 559.24 L37.41 560.57 ZM29.03 592.18 L27.14 592.18 L28.2 593.35 L30.24 593.35 L29.03 592.18
							 ZM26.89 590.09 L25.27 590.09 L26.4 591.35 L28.19 591.35 L26.89 590.09 ZM26.12 592.18 L24.24 592.18 L25.07
							 593.35 L27.1 593.35 L26.12 592.18 ZM24.39 590.09 L22.76 590.09 L23.65 591.35 L25.44 591.35 L24.39 590.09
							 ZM23.22 592.18 L21.33 592.18 L21.93 593.35 L23.97 593.35 L23.22 592.18 ZM21.89 590.09 L20.26 590.09
							 L20.92 591.38 L22.71 591.38 L21.89 590.09 ZM20.31 592.18 L18.42 592.18 L18.8 593.35 L20.84 593.35 L20.31
							 592.18 ZM19.42 590.18 L17.78 590.18 L18.17 591.38 L19.96 591.38 L19.42 590.18 ZM17.41 592.18 L15.52
							 592.18 L15.67 593.35 L17.7 593.35 L17.41 592.18 ZM16.93 590.28 L15.28 590.28 L15.43 591.45 L17.22 591.45
							 L16.93 590.28 ZM14.39 590.28 L12.74 590.28 L12.66 591.45 L14.46 591.45 L14.39 590.28 ZM14.5 592.18 L12.61
							 592.18 L12.53 593.35 L14.57 593.35 L14.5 592.18 ZM11.85 590.28 L10.2 590.28 L9.89 591.45 L11.69 591.45
							 L11.85 590.28 ZM11.59 592.18 L9.7 592.18 L9.4 593.35 L11.44 593.35 L11.59 592.18 ZM21.96 594.1 L8.63
							 594.1 L8.28 595.28 L22.54 595.28 L21.96 594.1 ZM9.31 590.28 L7.66 590.28 L7.12 591.45 L8.92 591.45 L9.31
							 590.28 ZM8.69 592.18 L6.8 592.18 L6.27 593.35 L8.3 593.35 L8.69 592.18 ZM6.77 590.28 L5.12 590.28 L4.36
							 591.45 L6.16 591.45 L6.77 590.28 ZM5.78 592.18 L3.89 592.18 L3.13 593.35 L5.17 593.35 L5.78 592.18 ZM4.23
							 590.28 L2.58 590.28 L1.59 591.45 L3.39 591.45 L4.23 590.28 ZM2.88 592.18 L0.99 592.18 L0 593.35 L2.04
							 593.35 L2.88 592.18 Z" class="st5"/>
			</g>
			<g id="shape53-151" v:mID="53" v:groupContext="groupContent">
				<v:textBlock v:margins="rect(4,4,4,4)" v:tabSpace="42.5197"/>
				<v:textRect cx="24.8031" cy="605.277" width="68.92" height="20.0036"/>
				<text x="-4.52" y="608.28" class="st19" v:langID="1036"><v:paragraph v:horizAlign="1"/><v:tabList/>Télétravailleur</text>			</g>
		</g>
		<g id="shape57-153" v:mID="57" v:groupContext="shape" v:layerMember="1" transform="translate(417.031,-175.493)">
			<title>Lien dynamique.57</title>
			<path d="M0 595.28 L-50.15 421.24" class="st8"/>
		</g>
		<g id="shape58-156" v:mID="58" v:groupContext="shape" v:layerMember="1" transform="translate(343.555,-124.439)">
			<title>Lien dynamique.58</title>
			<path d="M0 595.28 L57.32 569.58" class="st15"/>
		</g>
	</g>
</svg>
